%YAML 1.1
%TAG !u! tag:unity3d.com,2011:
--- !u!114 &11400000
MonoBehaviour:
  m_ObjectHideFlags: 0
  m_CorrespondingSourceObject: {fileID: 0}
  m_PrefabInstance: {fileID: 0}
  m_PrefabAsset: {fileID: 0}
  m_GameObject: {fileID: 0}
  m_Enabled: 1
  m_EditorHideFlags: 0
  m_Script: {fileID: 11500000, guid: 8f328b221c6522648ab10bd782588dcd, type: 3}
  m_Name: Bullet_1
  m_EditorClassIdentifier: 
  m_fxString: BulletSpawn
  FX: 3
  FXID: {fileID: -8115401164015018486, guid: 4e95c166955b402499e88f6b93708b30, type: 2}
  WeaponIdx: 1
