%YAML 1.1
%TAG !u! tag:unity3d.com,2011:
--- !u!114 &11400000
MonoBehaviour:
  m_ObjectHideFlags: 0
  m_CorrespondingSourceObject: {fileID: 0}
  m_PrefabInstance: {fileID: 0}
  m_PrefabAsset: {fileID: 0}
  m_GameObject: {fileID: 0}
  m_Enabled: 1
  m_EditorHideFlags: 0
  m_Script: {fileID: 11500000, guid: 8f81d3f28e90d034ab3fbe7718756e92, type: 3}
  m_Name: Tutorial_Bell
  m_EditorClassIdentifier: 
  DialogueElements:
  - Delay: 0
    Text: Now let's make some sound!
    ClearAfterSeconds: 1
    LeviExpression: 4
  - Delay: 0
    Text: Hold and CHARGE your weapon.
    ClearAfterSeconds: 1
    LeviExpression: 3
  SleepOnFinish: 1
