{
    "name": "GameUtility",
    "references": [
        "GUID:6055be8ebefd69e48b49212b09b47b2f",
        "GUID:75469ad4d38634e559750d17036d5f7c",
        "GUID:d60799ab2a985554ea1a39cd38695018",
        "GUID:317b18b8c64dd8042b504e078f65ee59",
        "GUID:8c4dd21966739024fbd72155091d199e",
        "GUID:3dc9fea223353c44fa545b55b3982d07",
        "GUID:290c38e588b73f541b9abf10aab592db",
        "GUID:3f539d11b34f8b8418dbe0355de52915"
    ],
    "includePlatforms": [],
    "excludePlatforms": [],
    "allowUnsafeCode": false,
    "overrideReferences": false,
    "precompiledReferences": [],
    "autoReferenced": true,
    "defineConstraints": [],
    "versionDefines": [],
    "noEngineReferences": false
}