%YAML 1.1
%TAG !u! tag:unity3d.com,2011:
--- !u!114 &-9180505884589412423
MonoBehaviour:
  m_ObjectHideFlags: 0
  m_CorrespondingSourceObject: {fileID: 0}
  m_PrefabInstance: {fileID: 0}
  m_PrefabAsset: {fileID: 0}
  m_GameObject: {fileID: 0}
  m_Enabled: 1
  m_EditorHideFlags: 0
  m_Script: {fileID: 11500000, guid: c84e117d3b40d184fbd1161e15895e81, type: 3}
  m_Name: Results
  m_EditorClassIdentifier: 
--- !u!114 &-9071377574369186833
MonoBehaviour:
  m_ObjectHideFlags: 0
  m_CorrespondingSourceObject: {fileID: 0}
  m_PrefabInstance: {fileID: 0}
  m_PrefabAsset: {fileID: 0}
  m_GameObject: {fileID: 0}
  m_Enabled: 1
  m_EditorHideFlags: 0
  m_Script: {fileID: 11500000, guid: c84e117d3b40d184fbd1161e15895e81, type: 3}
  m_Name: Elevator
  m_EditorClassIdentifier: 
--- !u!114 &-8881472974947998903
MonoBehaviour:
  m_ObjectHideFlags: 0
  m_CorrespondingSourceObject: {fileID: 0}
  m_PrefabInstance: {fileID: 0}
  m_PrefabAsset: {fileID: 0}
  m_GameObject: {fileID: 0}
  m_Enabled: 1
  m_EditorHideFlags: 0
  m_Script: {fileID: 11500000, guid: c84e117d3b40d184fbd1161e15895e81, type: 3}
  m_Name: Pause
  m_EditorClassIdentifier: 
--- !u!114 &-6397639417804886289
MonoBehaviour:
  m_ObjectHideFlags: 0
  m_CorrespondingSourceObject: {fileID: 0}
  m_PrefabInstance: {fileID: 0}
  m_PrefabAsset: {fileID: 0}
  m_GameObject: {fileID: 0}
  m_Enabled: 1
  m_EditorHideFlags: 0
  m_Script: {fileID: 11500000, guid: c84e117d3b40d184fbd1161e15895e81, type: 3}
  m_Name: Arena
  m_EditorClassIdentifier: 
--- !u!114 &-5737219244095112566
MonoBehaviour:
  m_ObjectHideFlags: 0
  m_CorrespondingSourceObject: {fileID: 0}
  m_PrefabInstance: {fileID: 0}
  m_PrefabAsset: {fileID: 0}
  m_GameObject: {fileID: 0}
  m_Enabled: 1
  m_EditorHideFlags: 0
  m_Script: {fileID: 11500000, guid: c84e117d3b40d184fbd1161e15895e81, type: 3}
  m_Name: TitleScreen
  m_EditorClassIdentifier: 
--- !u!114 &-5402196409862637818
MonoBehaviour:
  m_ObjectHideFlags: 0
  m_CorrespondingSourceObject: {fileID: 0}
  m_PrefabInstance: {fileID: 0}
  m_PrefabAsset: {fileID: 0}
  m_GameObject: {fileID: 0}
  m_Enabled: 1
  m_EditorHideFlags: 0
  m_Script: {fileID: 11500000, guid: c84e117d3b40d184fbd1161e15895e81, type: 3}
  m_Name: LevelSelection
  m_EditorClassIdentifier: 
--- !u!114 &11400000
MonoBehaviour:
  m_ObjectHideFlags: 0
  m_CorrespondingSourceObject: {fileID: 0}
  m_PrefabInstance: {fileID: 0}
  m_PrefabAsset: {fileID: 0}
  m_GameObject: {fileID: 0}
  m_Enabled: 1
  m_EditorHideFlags: 0
  m_Script: {fileID: 11500000, guid: 1eeca4fb693c1d04ea6fff1351b9c227, type: 3}
  m_Name: SceneIDs
  m_EditorClassIdentifier: 
  IDType:
    m_classRef: Game.Globals.SceneID, Game
    m_fallbackScriptAsset: {fileID: 11500000, guid: c84e117d3b40d184fbd1161e15895e81,
      type: 3}
  Ids:
  - {fileID: -5737219244095112566}
  - {fileID: 1034153202195176108}
  - {fileID: -5402196409862637818}
  - {fileID: -9071377574369186833}
  - {fileID: -6397639417804886289}
  - {fileID: -8881472974947998903}
  - {fileID: 5932408300473109535}
  - {fileID: -9180505884589412423}
--- !u!114 &1034153202195176108
MonoBehaviour:
  m_ObjectHideFlags: 0
  m_CorrespondingSourceObject: {fileID: 0}
  m_PrefabInstance: {fileID: 0}
  m_PrefabAsset: {fileID: 0}
  m_GameObject: {fileID: 0}
  m_Enabled: 1
  m_EditorHideFlags: 0
  m_Script: {fileID: 11500000, guid: c84e117d3b40d184fbd1161e15895e81, type: 3}
  m_Name: CharacterSelection
  m_EditorClassIdentifier: 
--- !u!114 &5932408300473109535
MonoBehaviour:
  m_ObjectHideFlags: 0
  m_CorrespondingSourceObject: {fileID: 0}
  m_PrefabInstance: {fileID: 0}
  m_PrefabAsset: {fileID: 0}
  m_GameObject: {fileID: 0}
  m_Enabled: 1
  m_EditorHideFlags: 0
  m_Script: {fileID: 11500000, guid: c84e117d3b40d184fbd1161e15895e81, type: 3}
  m_Name: GameOver
  m_EditorClassIdentifier: 
