%YAML 1.1
%TAG !u! tag:unity3d.com,2011:
--- !u!114 &11400000
MonoBehaviour:
  m_ObjectHideFlags: 0
  m_CorrespondingSourceObject: {fileID: 0}
  m_PrefabInstance: {fileID: 0}
  m_PrefabAsset: {fileID: 0}
  m_GameObject: {fileID: 0}
  m_Enabled: 1
  m_EditorHideFlags: 0
  m_Script: {fileID: 11500000, guid: 85e8384962f98684b8177bf20525f007, type: 3}
  m_Name: PlayerFX_HealedParticles
  m_EditorClassIdentifier: 
  m_prefab: {fileID: 6719208633355478395, guid: 8c831538dbb2ff6429495a5b61d47345,
    type: 3}
  m_prefabList:
  - {fileID: 6719208633355478395, guid: 8c831538dbb2ff6429495a5b61d47345, type: 3}
