%YAML 1.1
%TAG !u! tag:unity3d.com,2011:
--- !u!114 &11400000
MonoBehaviour:
  m_ObjectHideFlags: 0
  m_CorrespondingSourceObject: {fileID: 0}
  m_PrefabInstance: {fileID: 0}
  m_PrefabAsset: {fileID: 0}
  m_GameObject: {fileID: 0}
  m_Enabled: 1
  m_EditorHideFlags: 0
  m_Script: {fileID: 11500000, guid: d552555e2c3c36f438e4efcc72cadcfd, type: 3}
  m_Name: 90C60C22-24D7-4B17-B2BF-725114E36B0B
  m_EditorClassIdentifier: 
  objectName: GameOver
  id: 4158285989
  guid: 90C60C22-24D7-4B17-B2BF-725114E36B0B
