%YAML 1.1
%TAG !u! tag:unity3d.com,2011:
--- !u!114 &3822825819946148287
MonoBehaviour:
  m_ObjectHideFlags: 0
  m_CorrespondingSourceObject: {fileID: 0}
  m_PrefabInstance: {fileID: 0}
  m_PrefabAsset: {fileID: 0}
  m_GameObject: {fileID: 4643681194832273863}
  m_Enabled: 1
  m_EditorHideFlags: 0
  m_Script: {fileID: 11500000, guid: bd4d9060be20e0843a80332de5f724b7, type: 3}
  m_Name: 
  m_EditorClassIdentifier: 
  Press_Button_A:
    idInternal: 0
    valueGuidInternal: 
    WwiseObjectReference: {fileID: 11400000, guid: e90ffd174dd4af74b933a0a5db571be9,
      type: 2}
  Press_Button_X:
    idInternal: 0
    valueGuidInternal: 
    WwiseObjectReference: {fileID: 11400000, guid: cbad924244579e74b994e6e9fb0b9946,
      type: 2}
  Press_Button_LB:
    idInternal: 0
    valueGuidInternal: 
    WwiseObjectReference: {fileID: 0}
  Hold_Button_A:
    idInternal: 0
    valueGuidInternal: 
    WwiseObjectReference: {fileID: 0}
  Hold_Button_LT:
    idInternal: 0
    valueGuidInternal: 
    WwiseObjectReference: {fileID: 0}
  NoDash_Feedback:
    idInternal: 0
    valueGuidInternal: 
    WwiseObjectReference: {fileID: 0}
  Load_Dash:
    idInternal: 0
    valueGuidInternal: 
    WwiseObjectReference: {fileID: 0}
  Health_Full:
    idInternal: 0
    valueGuidInternal: 
    WwiseObjectReference: {fileID: 0}
  Low_Health:
    idInternal: 0
    valueGuidInternal: 
    WwiseObjectReference: {fileID: 0}
  Lose_Health:
    idInternal: 0
    valueGuidInternal: 
    WwiseObjectReference: {fileID: 0}
  Stop_LowHealth:
    idInternal: 0
    valueGuidInternal: 
    WwiseObjectReference: {fileID: 0}
  Health_Activate:
    idInternal: 0
    valueGuidInternal: 
    WwiseObjectReference: {fileID: 0}
  Dash:
    idInternal: 0
    valueGuidInternal: 
    WwiseObjectReference: {fileID: 0}
  DashEnergyTrail:
    idInternal: 0
    valueGuidInternal: 
    WwiseObjectReference: {fileID: 0}
  FootstepsMetal:
    idInternal: 0
    valueGuidInternal: 
    WwiseObjectReference: {fileID: 0}
  SwordBlock:
    idInternal: 0
    valueGuidInternal: 
    WwiseObjectReference: {fileID: 0}
  P01TakeDamage:
    idInternal: 0
    valueGuidInternal: 
    WwiseObjectReference: {fileID: 0}
  FastWeaponSwingShort:
    idInternal: 0
    valueGuidInternal: 
    WwiseObjectReference: {fileID: 0}
  FastWeaponSwingLong:
    idInternal: 0
    valueGuidInternal: 
    WwiseObjectReference: {fileID: 0}
  FastWeaponThrow:
    idInternal: 0
    valueGuidInternal: 
    WwiseObjectReference: {fileID: 0}
  Gunshot:
    idInternal: 0
    valueGuidInternal: 
    WwiseObjectReference: {fileID: 0}
  BRTakeDamage:
    idInternal: 0
    valueGuidInternal: 
    WwiseObjectReference: {fileID: 0}
  Footsteps:
    idInternal: 0
    valueGuidInternal: 
    WwiseObjectReference: {fileID: 0}
  ArmMoveDown:
    idInternal: 0
    valueGuidInternal: 
    WwiseObjectReference: {fileID: 0}
  ArmMoveUp:
    idInternal: 0
    valueGuidInternal: 
    WwiseObjectReference: {fileID: 0}
  MovementWalk:
    idInternal: 0
    valueGuidInternal: 
    WwiseObjectReference: {fileID: 0}
  JumpAttackStart:
    idInternal: 0
    valueGuidInternal: 
    WwiseObjectReference: {fileID: 0}
  JumpAttackEnd:
    idInternal: 0
    valueGuidInternal: 
    WwiseObjectReference: {fileID: 0}
  VoicesDamage:
    idInternal: 0
    valueGuidInternal: 
    WwiseObjectReference: {fileID: 0}
  VoicesDestroy:
    idInternal: 0
    valueGuidInternal: 
    WwiseObjectReference: {fileID: 0}
  VoicesIgnition:
    idInternal: 0
    valueGuidInternal: 
    WwiseObjectReference: {fileID: 0}
  VoicesShield:
    idInternal: 0
    valueGuidInternal: 
    WwiseObjectReference: {fileID: 0}
  VoicesShoot:
    idInternal: 0
    valueGuidInternal: 
    WwiseObjectReference: {fileID: 0}
  Death:
    idInternal: 0
    valueGuidInternal: 
    WwiseObjectReference: {fileID: 0}
  MovementArms:
    idInternal: 0
    valueGuidInternal: 
    WwiseObjectReference: {fileID: 0}
  SRTakeDamage:
    idInternal: 0
    valueGuidInternal: 
    WwiseObjectReference: {fileID: 0}
  SRWalk:
    idInternal: 0
    valueGuidInternal: 
    WwiseObjectReference: {fileID: 0}
--- !u!1001 &5521097854999678588
PrefabInstance:
  m_ObjectHideFlags: 0
  serializedVersion: 2
  m_Modification:
    m_TransformParent: {fileID: 0}
    m_Modifications:
    - target: {fileID: 932045350067171259, guid: 527d8bfd713a89349a05b1ef0e9123b7,
        type: 3}
      propertyPath: m_Name
      value: TutorialButtonInteract
      objectReference: {fileID: 0}
    - target: {fileID: 3151363258080923814, guid: 527d8bfd713a89349a05b1ef0e9123b7,
        type: 3}
      propertyPath: m_LocalPosition.x
      value: 0
      objectReference: {fileID: 0}
    - target: {fileID: 3151363258080923814, guid: 527d8bfd713a89349a05b1ef0e9123b7,
        type: 3}
      propertyPath: m_LocalPosition.y
      value: 0
      objectReference: {fileID: 0}
    - target: {fileID: 3151363258080923814, guid: 527d8bfd713a89349a05b1ef0e9123b7,
        type: 3}
      propertyPath: m_LocalPosition.z
      value: 0
      objectReference: {fileID: 0}
    - target: {fileID: 3151363258080923814, guid: 527d8bfd713a89349a05b1ef0e9123b7,
        type: 3}
      propertyPath: m_LocalRotation.x
      value: -0
      objectReference: {fileID: 0}
    - target: {fileID: 3151363258080923814, guid: 527d8bfd713a89349a05b1ef0e9123b7,
        type: 3}
      propertyPath: m_LocalRotation.y
      value: -0
      objectReference: {fileID: 0}
    - target: {fileID: 3151363258080923814, guid: 527d8bfd713a89349a05b1ef0e9123b7,
        type: 3}
      propertyPath: m_LocalRotation.z
      value: -0
      objectReference: {fileID: 0}
    - target: {fileID: 3151363258080923814, guid: 527d8bfd713a89349a05b1ef0e9123b7,
        type: 3}
      propertyPath: m_LocalRotation.w
      value: 1
      objectReference: {fileID: 0}
    - target: {fileID: 3151363258080923814, guid: 527d8bfd713a89349a05b1ef0e9123b7,
        type: 3}
      propertyPath: m_RootOrder
      value: 0
      objectReference: {fileID: 0}
    - target: {fileID: 3151363258080923814, guid: 527d8bfd713a89349a05b1ef0e9123b7,
        type: 3}
      propertyPath: m_LocalEulerAnglesHint.x
      value: 0
      objectReference: {fileID: 0}
    - target: {fileID: 3151363258080923814, guid: 527d8bfd713a89349a05b1ef0e9123b7,
        type: 3}
      propertyPath: m_LocalEulerAnglesHint.y
      value: 0
      objectReference: {fileID: 0}
    - target: {fileID: 3151363258080923814, guid: 527d8bfd713a89349a05b1ef0e9123b7,
        type: 3}
      propertyPath: m_LocalEulerAnglesHint.z
      value: 0
      objectReference: {fileID: 0}
    - target: {fileID: 5990010858333359391, guid: 527d8bfd713a89349a05b1ef0e9123b7,
        type: 3}
      propertyPath: m_anim.m_stateName
      value: a_press
      objectReference: {fileID: 0}
    - target: {fileID: 6504340841552939270, guid: 527d8bfd713a89349a05b1ef0e9123b7,
        type: 3}
      propertyPath: m_Sprite
      value: 
      objectReference: {fileID: 21300000, guid: d81602028643bd447a4fc53c688e6868,
        type: 3}
    - target: {fileID: 6504340841552939270, guid: 527d8bfd713a89349a05b1ef0e9123b7,
        type: 3}
      propertyPath: m_Size.y
      value: 1.29
      objectReference: {fileID: 0}
    - target: {fileID: 6817088481635106986, guid: 527d8bfd713a89349a05b1ef0e9123b7,
        type: 3}
      propertyPath: m_LocalScale.x
      value: 1.5
      objectReference: {fileID: 0}
    - target: {fileID: 6817088481635106986, guid: 527d8bfd713a89349a05b1ef0e9123b7,
        type: 3}
      propertyPath: m_LocalScale.y
      value: 1.5
      objectReference: {fileID: 0}
    - target: {fileID: 6817088481635106986, guid: 527d8bfd713a89349a05b1ef0e9123b7,
        type: 3}
      propertyPath: m_LocalScale.z
      value: 1.5
      objectReference: {fileID: 0}
    - target: {fileID: 6996384221034662773, guid: 527d8bfd713a89349a05b1ef0e9123b7,
        type: 3}
      propertyPath: Press_Button_A.WwiseObjectReference
      value: 
      objectReference: {fileID: 11400000, guid: e90ffd174dd4af74b933a0a5db571be9,
        type: 2}
    - target: {fileID: 6996384221034662773, guid: 527d8bfd713a89349a05b1ef0e9123b7,
        type: 3}
      propertyPath: Hold_Button_A.WwiseObjectReference
      value: 
      objectReference: {fileID: 11400000, guid: c1884eaae7318c0459cc4760324a233e,
        type: 2}
    m_RemovedComponents: []
  m_SourcePrefab: {fileID: 100100000, guid: 527d8bfd713a89349a05b1ef0e9123b7, type: 3}
--- !u!1 &4643681194832273863 stripped
GameObject:
  m_CorrespondingSourceObject: {fileID: 932045350067171259, guid: 527d8bfd713a89349a05b1ef0e9123b7,
    type: 3}
  m_PrefabInstance: {fileID: 5521097854999678588}
  m_PrefabAsset: {fileID: 0}
