%YAML 1.1
%TAG !u! tag:unity3d.com,2011:
--- !u!1001 &5521097854999678588
PrefabInstance:
  m_ObjectHideFlags: 0
  serializedVersion: 2
  m_Modification:
    m_TransformParent: {fileID: 0}
    m_Modifications:
    - target: {fileID: 932045350067171259, guid: 527d8bfd713a89349a05b1ef0e9123b7,
        type: 3}
      propertyPath: m_Name
      value: TutorialButtonCharge
      objectReference: {fileID: 0}
    - target: {fileID: 3151363258080923814, guid: 527d8bfd713a89349a05b1ef0e9123b7,
        type: 3}
      propertyPath: m_LocalPosition.x
      value: 0
      objectReference: {fileID: 0}
    - target: {fileID: 3151363258080923814, guid: 527d8bfd713a89349a05b1ef0e9123b7,
        type: 3}
      propertyPath: m_LocalPosition.y
      value: 0
      objectReference: {fileID: 0}
    - target: {fileID: 3151363258080923814, guid: 527d8bfd713a89349a05b1ef0e9123b7,
        type: 3}
      propertyPath: m_LocalPosition.z
      value: 0
      objectReference: {fileID: 0}
    - target: {fileID: 3151363258080923814, guid: 527d8bfd713a89349a05b1ef0e9123b7,
        type: 3}
      propertyPath: m_LocalRotation.x
      value: -0
      objectReference: {fileID: 0}
    - target: {fileID: 3151363258080923814, guid: 527d8bfd713a89349a05b1ef0e9123b7,
        type: 3}
      propertyPath: m_LocalRotation.y
      value: -0
      objectReference: {fileID: 0}
    - target: {fileID: 3151363258080923814, guid: 527d8bfd713a89349a05b1ef0e9123b7,
        type: 3}
      propertyPath: m_LocalRotation.z
      value: -0
      objectReference: {fileID: 0}
    - target: {fileID: 3151363258080923814, guid: 527d8bfd713a89349a05b1ef0e9123b7,
        type: 3}
      propertyPath: m_LocalRotation.w
      value: 1
      objectReference: {fileID: 0}
    - target: {fileID: 3151363258080923814, guid: 527d8bfd713a89349a05b1ef0e9123b7,
        type: 3}
      propertyPath: m_RootOrder
      value: 0
      objectReference: {fileID: 0}
    - target: {fileID: 3151363258080923814, guid: 527d8bfd713a89349a05b1ef0e9123b7,
        type: 3}
      propertyPath: m_LocalEulerAnglesHint.x
      value: 0
      objectReference: {fileID: 0}
    - target: {fileID: 3151363258080923814, guid: 527d8bfd713a89349a05b1ef0e9123b7,
        type: 3}
      propertyPath: m_LocalEulerAnglesHint.y
      value: 0
      objectReference: {fileID: 0}
    - target: {fileID: 3151363258080923814, guid: 527d8bfd713a89349a05b1ef0e9123b7,
        type: 3}
      propertyPath: m_LocalEulerAnglesHint.z
      value: 0
      objectReference: {fileID: 0}
    - target: {fileID: 5990010858333359391, guid: 527d8bfd713a89349a05b1ef0e9123b7,
        type: 3}
      propertyPath: m_anim.m_stateName
      value: x_hold
      objectReference: {fileID: 0}
    - target: {fileID: 6504340841552939270, guid: 527d8bfd713a89349a05b1ef0e9123b7,
        type: 3}
      propertyPath: m_Sprite
      value: 
      objectReference: {fileID: 21300000, guid: 0318ad2bbd31ba046aa4a31d45f1cb5f,
        type: 3}
    - target: {fileID: 6504340841552939270, guid: 527d8bfd713a89349a05b1ef0e9123b7,
        type: 3}
      propertyPath: m_Size.y
      value: 1.29
      objectReference: {fileID: 0}
    - target: {fileID: 6817088481635106986, guid: 527d8bfd713a89349a05b1ef0e9123b7,
        type: 3}
      propertyPath: m_LocalScale.x
      value: 1.5
      objectReference: {fileID: 0}
    - target: {fileID: 6817088481635106986, guid: 527d8bfd713a89349a05b1ef0e9123b7,
        type: 3}
      propertyPath: m_LocalScale.y
      value: 1.5
      objectReference: {fileID: 0}
    - target: {fileID: 6817088481635106986, guid: 527d8bfd713a89349a05b1ef0e9123b7,
        type: 3}
      propertyPath: m_LocalScale.z
      value: 1.5
      objectReference: {fileID: 0}
    - target: {fileID: 6996384221034662773, guid: 527d8bfd713a89349a05b1ef0e9123b7,
        type: 3}
      propertyPath: Press_Button_A.WwiseObjectReference
      value: 
      objectReference: {fileID: 11400000, guid: 3b57380afd8e8044aa1b16f3d1af7366,
        type: 2}
    m_RemovedComponents: []
  m_SourcePrefab: {fileID: 100100000, guid: 527d8bfd713a89349a05b1ef0e9123b7, type: 3}
