%YAML 1.1
%TAG !u! tag:unity3d.com,2011:
--- !u!114 &-1436718104207246318
MonoBehaviour:
  m_ObjectHideFlags: 1
  m_CorrespondingSourceObject: {fileID: 0}
  m_PrefabInstance: {fileID: 0}
  m_PrefabAsset: {fileID: 0}
  m_GameObject: {fileID: 0}
  m_Enabled: 1
  m_EditorHideFlags: 0
  m_Script: {fileID: 11500000, guid: c0c83c69a42fb9f41a3c4e31ae07202f, type: 3}
  m_Name: 
  m_EditorClassIdentifier: 
  Enabled: 1
  GUIData:
    UseColor: 0
    GUIColor: {r: 1, g: 1, b: 1, a: 1}
    Icon: {fileID: 0}
--- !u!114 &11400000
MonoBehaviour:
  m_ObjectHideFlags: 0
  m_CorrespondingSourceObject: {fileID: 0}
  m_PrefabInstance: {fileID: 0}
  m_PrefabAsset: {fileID: 0}
  m_GameObject: {fileID: 0}
  m_Enabled: 1
  m_EditorHideFlags: 0
  m_Script: {fileID: 11500000, guid: 41fa004e0f21a514696d3481a493b73e, type: 3}
  m_Name: SDespawnPlatforms
  m_EditorClassIdentifier: 
  Enabled: 1
  GUIData:
    UseColor: 1
    GUIColor: {r: 0.83137256, g: 0.43317175, b: 0.4117647, a: 1}
    Icon: {fileID: 0}
  m_actions:
  - {fileID: 6471129450948914403}
  - {fileID: -1436718104207246318}
  m_name: Despawn Platforms
--- !u!114 &6471129450948914403
MonoBehaviour:
  m_ObjectHideFlags: 1
  m_CorrespondingSourceObject: {fileID: 0}
  m_PrefabInstance: {fileID: 0}
  m_PrefabAsset: {fileID: 0}
  m_GameObject: {fileID: 0}
  m_Enabled: 1
  m_EditorHideFlags: 0
  m_Script: {fileID: 11500000, guid: e87e026fc131f10458010fc7bb46c591, type: 3}
  m_Name: 
  m_EditorClassIdentifier: 
  Enabled: 1
  GUIData:
    UseColor: 0
    GUIColor: {r: 1, g: 1, b: 1, a: 1}
    Icon: {fileID: 0}
  MoveToHeight:
    m_contextType: 0
    m_scriptable: {fileID: 11400000, guid: d9960db977a5eaf4f9ce2e1c6f60adba, type: 2}
    m_contextProvider: {fileID: 0}
    m_intrinsicValue: 0
  m_config: {fileID: 11400000, guid: 91279b0073e0c5e48a38760f98310507, type: 2}
  m_navMesh:
    m_contextType: 0
    m_scriptable: {fileID: 9103605149945624607, guid: ba6e949d2378be44b8dc141a6fa08e71,
      type: 2}
    m_contextProvider: {fileID: 0}
    m_intrinsicValue: {fileID: 0}
