%YAML 1.1
%TAG !u! tag:unity3d.com,2011:
--- !u!114 &11400000
MonoBehaviour:
  m_ObjectHideFlags: 0
  m_CorrespondingSourceObject: {fileID: 0}
  m_PrefabInstance: {fileID: 0}
  m_PrefabAsset: {fileID: 0}
  m_GameObject: {fileID: 0}
  m_Enabled: 1
  m_EditorHideFlags: 0
  m_Script: {fileID: 11500000, guid: 29599055489a32e4b887271c10bf7b25, type: 3}
  m_Name: CircularLayoutConfig
  m_EditorClassIdentifier: 
  Segments: 8
  VariantData:
  - VariantString: Default
    Variant: 1
    Prefab: {fileID: 6425912400181093262, guid: dd265c4645724cd44a7f15dffd3b46e8,
      type: 3}
    RingData:
    - RingPlatforms:
      - {fileID: 6301043009448539481, guid: dd265c4645724cd44a7f15dffd3b46e8, type: 3}
    - RingPlatforms:
      - {fileID: 2681211426401367931, guid: dd265c4645724cd44a7f15dffd3b46e8, type: 3}
      - {fileID: 1827295153282542426, guid: dd265c4645724cd44a7f15dffd3b46e8, type: 3}
      - {fileID: 2840427643911232210, guid: dd265c4645724cd44a7f15dffd3b46e8, type: 3}
    - RingPlatforms:
      - {fileID: 2089880916028389521, guid: dd265c4645724cd44a7f15dffd3b46e8, type: 3}
      - {fileID: 3854544106342709504, guid: dd265c4645724cd44a7f15dffd3b46e8, type: 3}
      - {fileID: 4103464946295988433, guid: dd265c4645724cd44a7f15dffd3b46e8, type: 3}
      - {fileID: 3378075883129250, guid: dd265c4645724cd44a7f15dffd3b46e8, type: 3}
      - {fileID: 4505899264776310840, guid: dd265c4645724cd44a7f15dffd3b46e8, type: 3}
    - RingPlatforms:
      - {fileID: 9081560578007392541, guid: dd265c4645724cd44a7f15dffd3b46e8, type: 3}
      - {fileID: 1730372804563204699, guid: dd265c4645724cd44a7f15dffd3b46e8, type: 3}
      - {fileID: 7437092162887029191, guid: dd265c4645724cd44a7f15dffd3b46e8, type: 3}
      - {fileID: 1477731893879087972, guid: dd265c4645724cd44a7f15dffd3b46e8, type: 3}
      - {fileID: 5056413977422158307, guid: dd265c4645724cd44a7f15dffd3b46e8, type: 3}
    - RingPlatforms:
      - {fileID: 9180940391103768986, guid: dd265c4645724cd44a7f15dffd3b46e8, type: 3}
      - {fileID: 6055920325935598737, guid: dd265c4645724cd44a7f15dffd3b46e8, type: 3}
      - {fileID: 6664222843086534861, guid: dd265c4645724cd44a7f15dffd3b46e8, type: 3}
      - {fileID: 1238605736129578154, guid: dd265c4645724cd44a7f15dffd3b46e8, type: 3}
      - {fileID: 7966411087168527849, guid: dd265c4645724cd44a7f15dffd3b46e8, type: 3}
    - RingPlatforms:
      - {fileID: 7383484214443556183, guid: dd265c4645724cd44a7f15dffd3b46e8, type: 3}
      - {fileID: 5567883496821184119, guid: dd265c4645724cd44a7f15dffd3b46e8, type: 3}
      - {fileID: 2878367492507293919, guid: dd265c4645724cd44a7f15dffd3b46e8, type: 3}
      - {fileID: 6728492908320757910, guid: dd265c4645724cd44a7f15dffd3b46e8, type: 3}
      - {fileID: 6785610289609951255, guid: dd265c4645724cd44a7f15dffd3b46e8, type: 3}
      - {fileID: 1749246317688489681, guid: dd265c4645724cd44a7f15dffd3b46e8, type: 3}
      - {fileID: 2639991496391092559, guid: dd265c4645724cd44a7f15dffd3b46e8, type: 3}
    Center: {fileID: 3247017812647360317, guid: ffd28eb0137fd2048a761f73f63ddeca,
      type: 3}
  - VariantString: Editor
    Variant: 0
    Prefab: {fileID: 6425912400181093262, guid: 23f4b18b80f3f774abcb01bb344ea514,
      type: 3}
    RingData:
    - RingPlatforms:
      - {fileID: 6301043009448539481, guid: 23f4b18b80f3f774abcb01bb344ea514, type: 3}
    - RingPlatforms:
      - {fileID: 2681211426401367931, guid: 23f4b18b80f3f774abcb01bb344ea514, type: 3}
      - {fileID: 1827295153282542426, guid: 23f4b18b80f3f774abcb01bb344ea514, type: 3}
      - {fileID: 2840427643911232210, guid: 23f4b18b80f3f774abcb01bb344ea514, type: 3}
    - RingPlatforms:
      - {fileID: 2089880916028389521, guid: 23f4b18b80f3f774abcb01bb344ea514, type: 3}
      - {fileID: 3854544106342709504, guid: 23f4b18b80f3f774abcb01bb344ea514, type: 3}
      - {fileID: 4103464946295988433, guid: 23f4b18b80f3f774abcb01bb344ea514, type: 3}
      - {fileID: 3378075883129250, guid: 23f4b18b80f3f774abcb01bb344ea514, type: 3}
      - {fileID: 4505899264776310840, guid: 23f4b18b80f3f774abcb01bb344ea514, type: 3}
    - RingPlatforms:
      - {fileID: 9081560578007392541, guid: 23f4b18b80f3f774abcb01bb344ea514, type: 3}
      - {fileID: 1730372804563204699, guid: 23f4b18b80f3f774abcb01bb344ea514, type: 3}
      - {fileID: 7437092162887029191, guid: 23f4b18b80f3f774abcb01bb344ea514, type: 3}
      - {fileID: 1477731893879087972, guid: 23f4b18b80f3f774abcb01bb344ea514, type: 3}
      - {fileID: 5056413977422158307, guid: 23f4b18b80f3f774abcb01bb344ea514, type: 3}
    - RingPlatforms:
      - {fileID: 9180940391103768986, guid: 23f4b18b80f3f774abcb01bb344ea514, type: 3}
      - {fileID: 6055920325935598737, guid: 23f4b18b80f3f774abcb01bb344ea514, type: 3}
      - {fileID: 6664222843086534861, guid: 23f4b18b80f3f774abcb01bb344ea514, type: 3}
      - {fileID: 1238605736129578154, guid: 23f4b18b80f3f774abcb01bb344ea514, type: 3}
      - {fileID: 7966411087168527849, guid: 23f4b18b80f3f774abcb01bb344ea514, type: 3}
    - RingPlatforms:
      - {fileID: 7383484214443556183, guid: 23f4b18b80f3f774abcb01bb344ea514, type: 3}
      - {fileID: 5567883496821184119, guid: 23f4b18b80f3f774abcb01bb344ea514, type: 3}
      - {fileID: 2878367492507293919, guid: 23f4b18b80f3f774abcb01bb344ea514, type: 3}
      - {fileID: 6728492908320757910, guid: 23f4b18b80f3f774abcb01bb344ea514, type: 3}
      - {fileID: 6785610289609951255, guid: 23f4b18b80f3f774abcb01bb344ea514, type: 3}
      - {fileID: 1749246317688489681, guid: 23f4b18b80f3f774abcb01bb344ea514, type: 3}
      - {fileID: 2639991496391092559, guid: 23f4b18b80f3f774abcb01bb344ea514, type: 3}
    Center: {fileID: 3247017812647360317, guid: ffd28eb0137fd2048a761f73f63ddeca,
      type: 3}
  - VariantString: Holo
    Variant: 4
    Prefab: {fileID: 6425912400181093262, guid: 52ffba3f0ed3b1547b04839d650de49e,
      type: 3}
    RingData:
    - RingPlatforms:
      - {fileID: 6301043009448539481, guid: 52ffba3f0ed3b1547b04839d650de49e, type: 3}
    - RingPlatforms:
      - {fileID: 2681211426401367931, guid: 52ffba3f0ed3b1547b04839d650de49e, type: 3}
      - {fileID: 1827295153282542426, guid: 52ffba3f0ed3b1547b04839d650de49e, type: 3}
      - {fileID: 2840427643911232210, guid: 52ffba3f0ed3b1547b04839d650de49e, type: 3}
    - RingPlatforms:
      - {fileID: 2089880916028389521, guid: 52ffba3f0ed3b1547b04839d650de49e, type: 3}
      - {fileID: 3854544106342709504, guid: 52ffba3f0ed3b1547b04839d650de49e, type: 3}
      - {fileID: 4103464946295988433, guid: 52ffba3f0ed3b1547b04839d650de49e, type: 3}
      - {fileID: 3378075883129250, guid: 52ffba3f0ed3b1547b04839d650de49e, type: 3}
      - {fileID: 4505899264776310840, guid: 52ffba3f0ed3b1547b04839d650de49e, type: 3}
    - RingPlatforms:
      - {fileID: 9081560578007392541, guid: 52ffba3f0ed3b1547b04839d650de49e, type: 3}
      - {fileID: 1730372804563204699, guid: 52ffba3f0ed3b1547b04839d650de49e, type: 3}
      - {fileID: 7437092162887029191, guid: 52ffba3f0ed3b1547b04839d650de49e, type: 3}
      - {fileID: 1477731893879087972, guid: 52ffba3f0ed3b1547b04839d650de49e, type: 3}
      - {fileID: 5056413977422158307, guid: 52ffba3f0ed3b1547b04839d650de49e, type: 3}
    - RingPlatforms:
      - {fileID: 9180940391103768986, guid: 52ffba3f0ed3b1547b04839d650de49e, type: 3}
      - {fileID: 6055920325935598737, guid: 52ffba3f0ed3b1547b04839d650de49e, type: 3}
      - {fileID: 6664222843086534861, guid: 52ffba3f0ed3b1547b04839d650de49e, type: 3}
      - {fileID: 1238605736129578154, guid: 52ffba3f0ed3b1547b04839d650de49e, type: 3}
      - {fileID: 7966411087168527849, guid: 52ffba3f0ed3b1547b04839d650de49e, type: 3}
    - RingPlatforms:
      - {fileID: 7383484214443556183, guid: 52ffba3f0ed3b1547b04839d650de49e, type: 3}
      - {fileID: 5567883496821184119, guid: 52ffba3f0ed3b1547b04839d650de49e, type: 3}
      - {fileID: 2878367492507293919, guid: 52ffba3f0ed3b1547b04839d650de49e, type: 3}
      - {fileID: 6728492908320757910, guid: 52ffba3f0ed3b1547b04839d650de49e, type: 3}
      - {fileID: 6785610289609951255, guid: 52ffba3f0ed3b1547b04839d650de49e, type: 3}
      - {fileID: 1749246317688489681, guid: 52ffba3f0ed3b1547b04839d650de49e, type: 3}
      - {fileID: 2639991496391092559, guid: 52ffba3f0ed3b1547b04839d650de49e, type: 3}
    Center: {fileID: 0}
