%YAML 1.1
%TAG !u! tag:unity3d.com,2011:
--- !u!21 &2100000
Material:
  serializedVersion: 6
  m_ObjectHideFlags: 0
  m_CorrespondingSourceObject: {fileID: 0}
  m_PrefabInstance: {fileID: 0}
  m_PrefabAsset: {fileID: 0}
  m_Name: Mat_Floor_Grid_(Sheet_A) White
  m_Shader: {fileID: -6465566751694194690, guid: 169c900aac0f7374eb993b9e458d774d,
    type: 3}
  m_ShaderKeywords: _BLENDMODE_ALPHA _SURFACE_TYPE_TRANSPARENT
  m_LightmapFlags: 4
  m_EnableInstancingVariants: 1
  m_DoubleSidedGI: 0
  m_CustomRenderQueue: -1
  stringTagMap:
    MotionVector: User
  disabledShaderPasses:
  - TransparentBackface
  - MOTIONVECTORS
  m_SavedProperties:
    serializedVersion: 3
    m_TexEnvs:
    - Texture2D_21B6D48E:
        m_Texture: {fileID: 2800000, guid: 08bc5569fa12d2542b2db6b9fb27116c, type: 3}
        m_Scale: {x: 1, y: 1}
        m_Offset: {x: 0, y: 0}
    - Texture2D_3C02621E:
        m_Texture: {fileID: 2800000, guid: 0b60cb191231a764aaca1706e8f640b4, type: 3}
        m_Scale: {x: 1, y: 1}
        m_Offset: {x: 0, y: 0}
    - Texture2D_60FB4732:
        m_Texture: {fileID: 2800000, guid: 0b60cb191231a764aaca1706e8f640b4, type: 3}
        m_Scale: {x: 1, y: 1}
        m_Offset: {x: 0, y: 0}
    - Texture2D_64C8AC4C:
        m_Texture: {fileID: 2800000, guid: f240409f0b950ef4594ca9a082f13734, type: 3}
        m_Scale: {x: 1, y: 1}
        m_Offset: {x: 0, y: 0}
    - Texture2D_79138BE4:
        m_Texture: {fileID: 0}
        m_Scale: {x: 1, y: 1}
        m_Offset: {x: 0, y: 0}
    - Texture2D_8B3F6CE6:
        m_Texture: {fileID: 2800000, guid: ac2f9ada26884da4588ffae7d1e8121f, type: 3}
        m_Scale: {x: 1, y: 1}
        m_Offset: {x: 0, y: 0}
    - Texture2D_982E0DF7:
        m_Texture: {fileID: 2800000, guid: 8fee9422be2404546bc39c1b1815cdef, type: 3}
        m_Scale: {x: 1, y: 1}
        m_Offset: {x: 0, y: 0}
    - _AnisotropyMap:
        m_Texture: {fileID: 0}
        m_Scale: {x: 1, y: 1}
        m_Offset: {x: 0, y: 0}
    - _BaseColorMap:
        m_Texture: {fileID: 0}
        m_Scale: {x: 1, y: 1}
        m_Offset: {x: 0, y: 0}
    - _BentNormalMap:
        m_Texture: {fileID: 0}
        m_Scale: {x: 1, y: 1}
        m_Offset: {x: 0, y: 0}
    - _BentNormalMapOS:
        m_Texture: {fileID: 0}
        m_Scale: {x: 1, y: 1}
        m_Offset: {x: 0, y: 0}
    - _CoatMaskMap:
        m_Texture: {fileID: 0}
        m_Scale: {x: 1, y: 1}
        m_Offset: {x: 0, y: 0}
    - _DetailMap:
        m_Texture: {fileID: 0}
        m_Scale: {x: 1, y: 1}
        m_Offset: {x: 0, y: 0}
    - _DistortionVectorMap:
        m_Texture: {fileID: 0}
        m_Scale: {x: 1, y: 1}
        m_Offset: {x: 0, y: 0}
    - _EmissiveColorMap:
        m_Texture: {fileID: 0}
        m_Scale: {x: 1, y: 1}
        m_Offset: {x: 0, y: 0}
    - _HeightMap:
        m_Texture: {fileID: 0}
        m_Scale: {x: 1, y: 1}
        m_Offset: {x: 0, y: 0}
    - _IridescenceMaskMap:
        m_Texture: {fileID: 0}
        m_Scale: {x: 1, y: 1}
        m_Offset: {x: 0, y: 0}
    - _IridescenceThicknessMap:
        m_Texture: {fileID: 0}
        m_Scale: {x: 1, y: 1}
        m_Offset: {x: 0, y: 0}
    - _MainTex:
        m_Texture: {fileID: 0}
        m_Scale: {x: 1, y: 1}
        m_Offset: {x: 0, y: 0}
    - _MaskMap:
        m_Texture: {fileID: 0}
        m_Scale: {x: 1, y: 1}
        m_Offset: {x: 0, y: 0}
    - _NormalMap:
        m_Texture: {fileID: 0}
        m_Scale: {x: 1, y: 1}
        m_Offset: {x: 0, y: 0}
    - _NormalMapOS:
        m_Texture: {fileID: 0}
        m_Scale: {x: 1, y: 1}
        m_Offset: {x: 0, y: 0}
    - _SampleTexture2D_12DFD435_Texture_1:
        m_Texture: {fileID: 0}
        m_Scale: {x: 1, y: 1}
        m_Offset: {x: 0, y: 0}
    - _SpecularColorMap:
        m_Texture: {fileID: 0}
        m_Scale: {x: 1, y: 1}
        m_Offset: {x: 0, y: 0}
    - _SubsurfaceMaskMap:
        m_Texture: {fileID: 0}
        m_Scale: {x: 1, y: 1}
        m_Offset: {x: 0, y: 0}
    - _TangentMap:
        m_Texture: {fileID: 0}
        m_Scale: {x: 1, y: 1}
        m_Offset: {x: 0, y: 0}
    - _TangentMapOS:
        m_Texture: {fileID: 0}
        m_Scale: {x: 1, y: 1}
        m_Offset: {x: 0, y: 0}
    - _Texture2DAsset_78B5F7E3_Out_0:
        m_Texture: {fileID: 0}
        m_Scale: {x: 1, y: 1}
        m_Offset: {x: 0, y: 0}
    - _ThicknessMap:
        m_Texture: {fileID: 0}
        m_Scale: {x: 1, y: 1}
        m_Offset: {x: 0, y: 0}
    - _TransmittanceColorMap:
        m_Texture: {fileID: 0}
        m_Scale: {x: 1, y: 1}
        m_Offset: {x: 0, y: 0}
    m_Floats:
    - Boolean_1E268742: 0
    - Boolean_36B14299: 1
    - Boolean_46B2E860: 1
    - Boolean_4CEB3C82: 1
    - Boolean_5C308A15: 1
    - Boolean_64C06CF1: 1
    - Boolean_7BB2AED3: 1
    - Boolean_840BB415: 0
    - Boolean_87AF99A0: 0
    - Boolean_8EB706FE: 0
    - Boolean_9FF9D1ED: 1
    - Boolean_AC64872: 0
    - Boolean_B1623F67: 1
    - Boolean_BEF517A: 0
    - Boolean_DA28C5DE: 1
    - Boolean_F4250BD7: 1
    - Boolean_F45CF0CA: 1
    - Flickering_Speed: 100
    - Vector1_1495B7B5: 1.9
    - Vector1_1932BCEC: 6.89
    - Vector1_1955BC8D: 25
    - Vector1_234D3FE8: 10
    - Vector1_239D01B1: 6.89
    - Vector1_2620C23A: 6.9
    - Vector1_27FDC278: 1
    - Vector1_2885613F: 0.82
    - Vector1_28EF8478: 1.301
    - Vector1_29DFEA16: 10
    - Vector1_2AC6ECA9: 0.29
    - Vector1_376703CA: 1.87
    - Vector1_3805D523: -4.6
    - Vector1_3AD227E9: 0.839
    - Vector1_3D056A34: 6.9
    - Vector1_3D73C552: 0.82
    - Vector1_45E0D0EF: 1.09
    - Vector1_4611875C: 1.09
    - Vector1_4B2C2197: 0
    - Vector1_532B9329: 0.82
    - Vector1_580E2F1F: 0
    - Vector1_5C4D1942: 1
    - Vector1_5D0A218D: 0.68
    - Vector1_5F2569BE: 0.79
    - Vector1_625BFEF9: 10
    - Vector1_62E58365: 7.57
    - Vector1_63885EAD: 100
    - Vector1_6452BD52: 25
    - Vector1_6A8B0B56: -4.6
    - Vector1_756B31F8: 1.87
    - Vector1_7A58C958: -4.2
    - Vector1_7C3179A4: 24
    - Vector1_88729709: 0
    - Vector1_8BBEC3A2: 10
    - Vector1_94B3A778: 10
    - Vector1_969365B2: 100
    - Vector1_97ADE35D: 0.68
    - Vector1_A53DF7B9: 1.17
    - Vector1_A71F8CB3: 0.87
    - Vector1_AF077F3D: 1
    - Vector1_AF418CF4: 100
    - Vector1_B664AA57: 4.76
    - Vector1_B7CD86D0: 10
    - Vector1_B9FD41F2: 4.1
    - Vector1_BF96F48A: 1
    - Vector1_C192D0: 24
    - Vector1_C509607C: 0.66
    - Vector1_C78CE6AB: 0.5
    - Vector1_C842854E: 1.17
    - Vector1_C8996D72: 6
    - Vector1_D2ACA51: 0.82
    - Vector1_DBA2DFEC: 0.79
    - Vector1_DC295A1: 7.57
    - Vector1_E019539E: 0.5
    - Vector1_E77E3CA8: 1.06
    - Vector1_E7A3D15B: 433
    - Vector1_ECC4F182: 1
    - Vector1_ED7501AA: 0.5
    - Vector1_EF228C2C: 1.06
    - Vector1_F0B0CFFF: 0
    - Vector1_F456F78B: -4.2
    - Vector1_F96C3FAD: 10
    - Vector1_FF8E0751: 0
    - _AORemapMax: 1
    - _AORemapMin: 0
    - _ATDistance: 1
    - _AddPrecomputedVelocity: 0
    - _AlbedoAffectEmissive: 0
    - _AlphaCutoff: 0.5
    - _AlphaCutoffEnable: 0
    - _AlphaCutoffPostpass: 0.5
    - _AlphaCutoffPrepass: 0.5
    - _AlphaCutoffShadow: 0.5
    - _AlphaDstBlend: 10
    - _AlphaSrcBlend: 1
    - _Anisotropy: 0
    - _BlendMode: 0
    - _CoatMask: 0
    - _CullMode: 2
    - _CullModeForward: 2
    - _Cutoff: 0.5
    - _DecalMeshDepthBias: 0
    - _DepthOffsetEnable: 0
    - _DetailAlbedoScale: 1
    - _DetailNormalScale: 1
    - _DetailSmoothnessScale: 1
    - _DiffusionProfile: 0
    - _DiffusionProfileHash: 0
    - _DisplacementLockObjectScale: 1
    - _DisplacementLockTilingScale: 1
    - _DisplacementMode: 0
    - _DistortionBlendMode: 0
    - _DistortionBlurBlendMode: 0
    - _DistortionBlurDstBlend: 0
    - _DistortionBlurRemapMax: 1
    - _DistortionBlurRemapMin: 0
    - _DistortionBlurScale: 1
    - _DistortionBlurSrcBlend: 0
    - _DistortionDepthTest: 1
    - _DistortionDstBlend: 0
    - _DistortionEnable: 0
    - _DistortionScale: 1
    - _DistortionSrcBlend: 0
    - _DistortionVectorBias: -1
    - _DistortionVectorScale: 2
    - _DoubleSidedEnable: 0
    - _DoubleSidedNormalMode: 1
    - _DrawOrder: 0
    - _DstBlend: 10
    - _EmissiveColorMode: 1
    - _EmissiveExposureWeight: 1
    - _EmissiveIntensity: 1
    - _EmissiveIntensityUnit: 0
    - _EnableBlendModePreserveSpecularLighting: 1
    - _EnableFogOnTransparent: 1
    - _EnableGeometricSpecularAA: 0
    - _EnableSpecularOcclusion: 0
    - _EnergyConservingSpecularColor: 1
    - _HdrpVersion: 2
    - _HeightAmplitude: 0.02
    - _HeightCenter: 0.5
    - _HeightMapParametrization: 0
    - _HeightMax: 1
    - _HeightMin: -1
    - _HeightOffset: 0
    - _HeightPoMAmplitude: 2
    - _HeightTessAmplitude: 2
    - _HeightTessCenter: 0.5
    - _InvTilingScale: 1
    - _Ior: 1
    - _IridescenceMask: 1
    - _IridescenceThickness: 1
    - _LinkDetailsWithBase: 1
    - _MaterialID: 1
    - _Metallic: 0
    - _NormalMapSpace: 0
    - _NormalScale: 1
    - _PPDLodThreshold: 5
    - _PPDMaxSamples: 15
    - _PPDMinSamples: 5
    - _PPDPrimitiveLength: 1
    - _PPDPrimitiveWidth: 1
    - _ReceivesSSR: 0
    - _RefractionModel: 0
    - _RenderQueueType: 5
    - _RequireSplitLighting: 0
    - _SSRefractionProjectionModel: 0
    - _Smoothness: 0.5
    - _SmoothnessRemapMax: 1
    - _SmoothnessRemapMin: 0
    - _SpecularAAScreenSpaceVariance: 0.1
    - _SpecularAAThreshold: 0.2
    - _SrcBlend: 1
    - _StencilRef: 0
    - _StencilRefDepth: 32
    - _StencilRefDistortionVec: 64
    - _StencilRefGBuffer: 2
    - _StencilRefMV: 160
    - _StencilWriteMask: 3
    - _StencilWriteMaskDepth: 48
    - _StencilWriteMaskDistortionVec: 64
    - _StencilWriteMaskGBuffer: 3
    - _StencilWriteMaskMV: 176
    - _SubsurfaceMask: 1
    - _SupportDecals: 1
    - _SurfaceType: 1
    - _TexWorldScale: 1
    - _TexWorldScaleEmissive: 1
    - _Thickness: 1
    - _ThicknessMultiplier: 1
    - _TransmissionEnable: 1
    - _TransparentBackfaceEnable: 0
    - _TransparentCullMode: 2
    - _TransparentDepthPostpassEnable: 0
    - _TransparentDepthPrepassEnable: 0
    - _TransparentSortPriority: 0
    - _TransparentWritingMotionVec: 0
    - _UVBase: 0
    - _UVDetail: 0
    - _UVEmissive: 0
    - _UseEmissiveIntensity: 0
    - _UseShadowThreshold: 0
    - _ZTestDepthEqualForOpaque: 4
    - _ZTestGBuffer: 4
    - _ZTestModeDistortion: 8
    - _ZTestTransparent: 4
    - _ZWrite: 1
    m_Colors:
    - Color_28F56C2F: {r: 0, g: 4, b: 2.9884722, a: 1}
    - Color_B2496ABB: {r: 0.15273929, g: 2.6238508, b: 3.5978668, a: 1}
    - Color_BD41A6F5: {r: 0, g: 21.960785, b: 23.968628, a: 1}
    - Color_C842FF79: {r: 0, g: 0.100284, b: 0.1088188, a: 0}
    - Color_F78232D0: {r: 0.05490196, g: 1.4039216, b: 1.4980392, a: 1}
    - Sphere_Center: {r: 0, g: 0, b: 0, a: 0}
    - Vector2_688EBDD4: {r: 0.3, g: 0.3, b: 0, a: 0}
    - Vector2_6D06F48D: {r: 1, g: 1, b: 0, a: 0}
    - Vector2_A5F1F4B5: {r: 1, g: 1, b: 0, a: 0}
    - Vector2_B7DE77A9: {r: 0.3, g: 0.3, b: 0, a: 0}
    - Vector3_3732BDA8: {r: -0.59, g: 0, b: 0.37, a: 0}
    - Vector3_3E35F00A: {r: 0.37, g: 0, b: 0.84, a: 0}
    - Vector3_569443D8: {r: 0.37, g: 0, b: 0.84, a: 0}
    - Vector3_7749E798: {r: 0, g: 0, b: 0, a: 0}
    - Vector3_7C09E459: {r: -0.36, g: 0, b: -0.43, a: 0}
    - Vector3_993F5D7D: {r: 0, g: 0, b: 0, a: 0}
    - Vector3_AC5634AD: {r: 0, g: 0, b: 0, a: 0}
    - Vector3_B67FFBF5: {r: -0.59, g: 0, b: 0.37, a: 0}
    - Vector3_CC7D44DC: {r: 0, g: 0, b: 0, a: 0}
    - Vector3_EA275CDF: {r: 0.69, g: 0, b: 0.39, a: 0}
    - Vector3_EA28FD4B: {r: 0.69, g: 0, b: 0.39, a: 0}
    - Vector3_ECE25394: {r: -0.36, g: 0, b: -0.43, a: 0}
    - _BaseColor: {r: 1, g: 1, b: 1, a: 1}
    - _BaseColorMap_MipInfo: {r: 0, g: 0, b: 0, a: 0}
    - _Color: {r: 1, g: 1, b: 1, a: 1}
    - _DiffusionProfileAsset: {r: 0, g: 0, b: 0, a: 0}
    - _DoubleSidedConstants: {r: 1, g: 1, b: -1, a: 0}
    - _EmissionColor: {r: 1, g: 1, b: 1, a: 1}
    - _EmissiveColor: {r: 0, g: 0, b: 0, a: 1}
    - _EmissiveColorLDR: {r: 0, g: 0, b: 0, a: 1}
    - _InvPrimScale: {r: 1, g: 1, b: 0, a: 0}
    - _IridescenceThicknessRemap: {r: 0, g: 1, b: 0, a: 0}
    - _SpecularColor: {r: 1, g: 1, b: 1, a: 1}
    - _SphereCenter: {r: 0, g: 0, b: 0, a: 0}
    - _ThicknessRemap: {r: 0, g: 1, b: 0, a: 0}
    - _TransmittanceColor: {r: 1, g: 1, b: 1, a: 1}
    - _UVDetailsMappingMask: {r: 1, g: 0, b: 0, a: 0}
    - _UVMappingMask: {r: 1, g: 0, b: 0, a: 0}
    - _UVMappingMaskEmissive: {r: 1, g: 0, b: 0, a: 0}
