%YAML 1.1
%TAG !u! tag:unity3d.com,2011:
--- !u!1001 &5089039506328506232
PrefabInstance:
  m_ObjectHideFlags: 0
  serializedVersion: 2
  m_Modification:
    m_TransformParent: {fileID: 0}
    m_Modifications:
    - target: {fileID: 616526112543059925, guid: 2b26983e06c23634c80146a550551f1f,
        type: 3}
      propertyPath: InitialModule.startColor.maxColor.r
      value: 1
      objectReference: {fileID: 0}
    - target: {fileID: 616526112543059925, guid: 2b26983e06c23634c80146a550551f1f,
        type: 3}
      propertyPath: InitialModule.startColor.maxColor.g
      value: 0.25
      objectReference: {fileID: 0}
    - target: {fileID: 616526112543059925, guid: 2b26983e06c23634c80146a550551f1f,
        type: 3}
      propertyPath: InitialModule.startColor.maxColor.b
      value: 0
      objectReference: {fileID: 0}
    - target: {fileID: 1339919546705079899, guid: 2b26983e06c23634c80146a550551f1f,
        type: 3}
      propertyPath: InitialModule.startColor.maxColor.r
      value: 1
      objectReference: {fileID: 0}
    - target: {fileID: 1339919546705079899, guid: 2b26983e06c23634c80146a550551f1f,
        type: 3}
      propertyPath: InitialModule.startColor.maxColor.g
      value: 0.33333334
      objectReference: {fileID: 0}
    - target: {fileID: 1339919546705079899, guid: 2b26983e06c23634c80146a550551f1f,
        type: 3}
      propertyPath: InitialModule.startColor.maxColor.b
      value: 0
      objectReference: {fileID: 0}
    - target: {fileID: 1442079296833066788, guid: 2b26983e06c23634c80146a550551f1f,
        type: 3}
      propertyPath: m_Name
      value: Pref_Player_Charge_System Orange
      objectReference: {fileID: 0}
    - target: {fileID: 2297626213765712173, guid: 2b26983e06c23634c80146a550551f1f,
        type: 3}
      propertyPath: InitialModule.startColor.maxColor.r
      value: 1
      objectReference: {fileID: 0}
    - target: {fileID: 2297626213765712173, guid: 2b26983e06c23634c80146a550551f1f,
        type: 3}
      propertyPath: InitialModule.startColor.maxColor.g
      value: 0.33333334
      objectReference: {fileID: 0}
    - target: {fileID: 2297626213765712173, guid: 2b26983e06c23634c80146a550551f1f,
        type: 3}
      propertyPath: InitialModule.startColor.maxColor.b
      value: 0
      objectReference: {fileID: 0}
    - target: {fileID: 2740650935309605136, guid: 2b26983e06c23634c80146a550551f1f,
        type: 3}
      propertyPath: InitialModule.startColor.maxColor.r
      value: 0.5647059
      objectReference: {fileID: 0}
    - target: {fileID: 2740650935309605136, guid: 2b26983e06c23634c80146a550551f1f,
        type: 3}
      propertyPath: InitialModule.startColor.maxColor.g
      value: 0.18823531
      objectReference: {fileID: 0}
    - target: {fileID: 2740650935309605136, guid: 2b26983e06c23634c80146a550551f1f,
        type: 3}
      propertyPath: InitialModule.startColor.maxColor.b
      value: 0
      objectReference: {fileID: 0}
    - target: {fileID: 3449809250317259123, guid: 2b26983e06c23634c80146a550551f1f,
        type: 3}
      propertyPath: InitialModule.startColor.maxColor.r
      value: 1
      objectReference: {fileID: 0}
    - target: {fileID: 3449809250317259123, guid: 2b26983e06c23634c80146a550551f1f,
        type: 3}
      propertyPath: InitialModule.startColor.maxColor.g
      value: 0.33333334
      objectReference: {fileID: 0}
    - target: {fileID: 3449809250317259123, guid: 2b26983e06c23634c80146a550551f1f,
        type: 3}
      propertyPath: InitialModule.startColor.maxColor.b
      value: 0
      objectReference: {fileID: 0}
    - target: {fileID: 3897026911038047779, guid: 2b26983e06c23634c80146a550551f1f,
        type: 3}
      propertyPath: InitialModule.startColor.maxColor.r
      value: 0.8980392
      objectReference: {fileID: 0}
    - target: {fileID: 3897026911038047779, guid: 2b26983e06c23634c80146a550551f1f,
        type: 3}
      propertyPath: InitialModule.startColor.maxColor.g
      value: 0.44313726
      objectReference: {fileID: 0}
    - target: {fileID: 3897026911038047779, guid: 2b26983e06c23634c80146a550551f1f,
        type: 3}
      propertyPath: InitialModule.startColor.maxColor.b
      value: 0.21568626
      objectReference: {fileID: 0}
    - target: {fileID: 3897374158725758081, guid: 2b26983e06c23634c80146a550551f1f,
        type: 3}
      propertyPath: InitialModule.startColor.maxColor.r
      value: 0.99215686
      objectReference: {fileID: 0}
    - target: {fileID: 3897374158725758081, guid: 2b26983e06c23634c80146a550551f1f,
        type: 3}
      propertyPath: InitialModule.startColor.maxColor.g
      value: 0.33333334
      objectReference: {fileID: 0}
    - target: {fileID: 3897374158725758081, guid: 2b26983e06c23634c80146a550551f1f,
        type: 3}
      propertyPath: InitialModule.startColor.maxColor.b
      value: 0.0039215623
      objectReference: {fileID: 0}
    - target: {fileID: 3897469683154941275, guid: 2b26983e06c23634c80146a550551f1f,
        type: 3}
      propertyPath: InitialModule.startColor.maxColor.r
      value: 0.9607843
      objectReference: {fileID: 0}
    - target: {fileID: 3897469683154941275, guid: 2b26983e06c23634c80146a550551f1f,
        type: 3}
      propertyPath: InitialModule.startColor.maxColor.g
      value: 0.33594775
      objectReference: {fileID: 0}
    - target: {fileID: 3897469683154941275, guid: 2b26983e06c23634c80146a550551f1f,
        type: 3}
      propertyPath: InitialModule.startColor.maxColor.b
      value: 0.023529435
      objectReference: {fileID: 0}
    - target: {fileID: 3897557822334784633, guid: 2b26983e06c23634c80146a550551f1f,
        type: 3}
      propertyPath: InitialModule.startColor.maxColor.r
      value: 0.99215686
      objectReference: {fileID: 0}
    - target: {fileID: 3897557822334784633, guid: 2b26983e06c23634c80146a550551f1f,
        type: 3}
      propertyPath: InitialModule.startColor.maxColor.g
      value: 0.33333334
      objectReference: {fileID: 0}
    - target: {fileID: 3897557822334784633, guid: 2b26983e06c23634c80146a550551f1f,
        type: 3}
      propertyPath: InitialModule.startColor.maxColor.b
      value: 0.0039215623
      objectReference: {fileID: 0}
    - target: {fileID: 5190136977485310399, guid: 2b26983e06c23634c80146a550551f1f,
        type: 3}
      propertyPath: InitialModule.startColor.maxColor.r
      value: 1
      objectReference: {fileID: 0}
    - target: {fileID: 5190136977485310399, guid: 2b26983e06c23634c80146a550551f1f,
        type: 3}
      propertyPath: InitialModule.startColor.maxColor.g
      value: 0.33333334
      objectReference: {fileID: 0}
    - target: {fileID: 5190136977485310399, guid: 2b26983e06c23634c80146a550551f1f,
        type: 3}
      propertyPath: InitialModule.startColor.maxColor.b
      value: 0
      objectReference: {fileID: 0}
    - target: {fileID: 5211279097294156549, guid: 2b26983e06c23634c80146a550551f1f,
        type: 3}
      propertyPath: InitialModule.startColor.maxColor.r
      value: 1
      objectReference: {fileID: 0}
    - target: {fileID: 5211279097294156549, guid: 2b26983e06c23634c80146a550551f1f,
        type: 3}
      propertyPath: InitialModule.startColor.maxColor.g
      value: 0.33333334
      objectReference: {fileID: 0}
    - target: {fileID: 5211279097294156549, guid: 2b26983e06c23634c80146a550551f1f,
        type: 3}
      propertyPath: InitialModule.startColor.maxColor.b
      value: 0
      objectReference: {fileID: 0}
    - target: {fileID: 7093899401895281861, guid: 2b26983e06c23634c80146a550551f1f,
        type: 3}
      propertyPath: m_LocalPosition.x
      value: 0
      objectReference: {fileID: 0}
    - target: {fileID: 7093899401895281861, guid: 2b26983e06c23634c80146a550551f1f,
        type: 3}
      propertyPath: m_LocalPosition.y
      value: 0
      objectReference: {fileID: 0}
    - target: {fileID: 7093899401895281861, guid: 2b26983e06c23634c80146a550551f1f,
        type: 3}
      propertyPath: m_LocalPosition.z
      value: 0
      objectReference: {fileID: 0}
    - target: {fileID: 7093899401895281861, guid: 2b26983e06c23634c80146a550551f1f,
        type: 3}
      propertyPath: m_LocalRotation.x
      value: 0
      objectReference: {fileID: 0}
    - target: {fileID: 7093899401895281861, guid: 2b26983e06c23634c80146a550551f1f,
        type: 3}
      propertyPath: m_LocalRotation.y
      value: 0
      objectReference: {fileID: 0}
    - target: {fileID: 7093899401895281861, guid: 2b26983e06c23634c80146a550551f1f,
        type: 3}
      propertyPath: m_LocalRotation.z
      value: 0
      objectReference: {fileID: 0}
    - target: {fileID: 7093899401895281861, guid: 2b26983e06c23634c80146a550551f1f,
        type: 3}
      propertyPath: m_LocalRotation.w
      value: 1
      objectReference: {fileID: 0}
    - target: {fileID: 7093899401895281861, guid: 2b26983e06c23634c80146a550551f1f,
        type: 3}
      propertyPath: m_RootOrder
      value: 0
      objectReference: {fileID: 0}
    - target: {fileID: 7093899401895281861, guid: 2b26983e06c23634c80146a550551f1f,
        type: 3}
      propertyPath: m_LocalEulerAnglesHint.x
      value: 0
      objectReference: {fileID: 0}
    - target: {fileID: 7093899401895281861, guid: 2b26983e06c23634c80146a550551f1f,
        type: 3}
      propertyPath: m_LocalEulerAnglesHint.y
      value: 0
      objectReference: {fileID: 0}
    - target: {fileID: 7093899401895281861, guid: 2b26983e06c23634c80146a550551f1f,
        type: 3}
      propertyPath: m_LocalEulerAnglesHint.z
      value: 0
      objectReference: {fileID: 0}
    - target: {fileID: 7708744022309757493, guid: 2b26983e06c23634c80146a550551f1f,
        type: 3}
      propertyPath: InitialModule.startColor.maxColor.r
      value: 0.5647059
      objectReference: {fileID: 0}
    - target: {fileID: 7708744022309757493, guid: 2b26983e06c23634c80146a550551f1f,
        type: 3}
      propertyPath: InitialModule.startColor.maxColor.g
      value: 0.18823531
      objectReference: {fileID: 0}
    - target: {fileID: 7708744022309757493, guid: 2b26983e06c23634c80146a550551f1f,
        type: 3}
      propertyPath: InitialModule.startColor.maxColor.b
      value: 0
      objectReference: {fileID: 0}
    - target: {fileID: 7803715880863059678, guid: 2b26983e06c23634c80146a550551f1f,
        type: 3}
      propertyPath: InitialModule.startColor.maxColor.r
      value: 0.5647059
      objectReference: {fileID: 0}
    - target: {fileID: 7803715880863059678, guid: 2b26983e06c23634c80146a550551f1f,
        type: 3}
      propertyPath: InitialModule.startColor.maxColor.g
      value: 0.18823531
      objectReference: {fileID: 0}
    - target: {fileID: 7803715880863059678, guid: 2b26983e06c23634c80146a550551f1f,
        type: 3}
      propertyPath: InitialModule.startColor.maxColor.b
      value: 0
      objectReference: {fileID: 0}
    - target: {fileID: 8160238879281172562, guid: 2b26983e06c23634c80146a550551f1f,
        type: 3}
      propertyPath: InitialModule.startColor.maxColor.r
      value: 0.9254902
      objectReference: {fileID: 0}
    - target: {fileID: 8160238879281172562, guid: 2b26983e06c23634c80146a550551f1f,
        type: 3}
      propertyPath: InitialModule.startColor.maxColor.g
      value: 0.31633988
      objectReference: {fileID: 0}
    - target: {fileID: 8160238879281172562, guid: 2b26983e06c23634c80146a550551f1f,
        type: 3}
      propertyPath: InitialModule.startColor.maxColor.b
      value: 0.011764723
      objectReference: {fileID: 0}
    m_RemovedComponents: []
  m_SourcePrefab: {fileID: 100100000, guid: 2b26983e06c23634c80146a550551f1f, type: 3}
