%YAML 1.1
%TAG !u! tag:unity3d.com,2011:
--- !u!114 &-5153863772652871990
MonoBehaviour:
  m_ObjectHideFlags: 1
  m_CorrespondingSourceObject: {fileID: 0}
  m_PrefabInstance: {fileID: 0}
  m_PrefabAsset: {fileID: 0}
  m_GameObject: {fileID: 0}
  m_Enabled: 1
  m_EditorHideFlags: 0
  m_Script: {fileID: 11500000, guid: eab78687ac7e7b646864ed083373692a, type: 3}
  m_Name: 
  m_EditorClassIdentifier: 
  m_selectionIds:
  - UniqueLayoutIdx: 0
    Index: {x: 7, y: 0, z: 0}
  - UniqueLayoutIdx: 0
    Index: {x: 5, y: 0, z: 0}
  - UniqueLayoutIdx: 0
    Index: {x: 6, y: 0, z: 0}
  - UniqueLayoutIdx: 0
    Index: {x: 1, y: 0, z: 0}
  - UniqueLayoutIdx: 0
    Index: {x: 4, y: 0, z: 0}
  - UniqueLayoutIdx: 0
    Index: {x: 3, y: 0, z: 0}
  - UniqueLayoutIdx: 0
    Index: {x: 0, y: 0, z: 0}
  - UniqueLayoutIdx: 0
    Index: {x: 0, y: 0, z: -1}
  - UniqueLayoutIdx: 0
    Index: {x: 2, y: 0, z: 0}
--- !u!114 &11400000
MonoBehaviour:
  m_ObjectHideFlags: 0
  m_CorrespondingSourceObject: {fileID: 0}
  m_PrefabInstance: {fileID: 0}
  m_PrefabAsset: {fileID: 0}
  m_GameObject: {fileID: 0}
  m_Enabled: 1
  m_EditorHideFlags: 0
  m_Script: {fileID: 11500000, guid: e0427606c50f7f04991a21f236137547, type: 3}
  m_Name: Initial
  m_EditorClassIdentifier: 
  Enabled: 1
  GUIData:
    UseColor: 0
    GUIColor: {r: 1, g: 1, b: 1, a: 1}
    Icon: {fileID: 0}
  m_selection: {fileID: -5153863772652871990}
  ActionConfig: {fileID: 5317565164183375759}
--- !u!114 &5317565164183375759
MonoBehaviour:
  m_ObjectHideFlags: 1
  m_CorrespondingSourceObject: {fileID: 0}
  m_PrefabInstance: {fileID: 0}
  m_PrefabAsset: {fileID: 0}
  m_GameObject: {fileID: 0}
  m_Enabled: 1
  m_EditorHideFlags: 0
  m_Script: {fileID: 11500000, guid: 41fa004e0f21a514696d3481a493b73e, type: 3}
  m_Name: 
  m_EditorClassIdentifier: 
  Enabled: 1
  GUIData:
    UseColor: 0
    GUIColor: {r: 1, g: 1, b: 1, a: 1}
    Icon: {fileID: 0}
  m_actions:
  - {fileID: 8724523942236406677}
  m_name: 
--- !u!114 &8724523942236406677
MonoBehaviour:
  m_ObjectHideFlags: 1
  m_CorrespondingSourceObject: {fileID: 0}
  m_PrefabInstance: {fileID: 0}
  m_PrefabAsset: {fileID: 0}
  m_GameObject: {fileID: 0}
  m_Enabled: 1
  m_EditorHideFlags: 0
  m_Script: {fileID: 11500000, guid: d5f6d7540b66de8499811e154491d718, type: 3}
  m_Name: 
  m_EditorClassIdentifier: 
  Enabled: 1
  GUIData:
    UseColor: 0
    GUIColor: {r: 1, g: 1, b: 1, a: 1}
    Icon: {fileID: 0}
  SpecifyVariant: 0
  m_variantKey: Default
  Variant: 1
  Height:
    m_contextType: 0
    m_scriptable: {fileID: 11400000, guid: 53332cf7722085b49a00453949f2eba0, type: 2}
    m_contextProvider: {fileID: 0}
    m_intrinsicValue: 0
