{
    "name": "_Editor",
    "references": [
        "GUID:317b18b8c64dd8042b504e078f65ee59",
        "GUID:7a16010c2df29574995f255724cb6b6d",
        "GUID:bba726bdb9bc93147b61de43bee539a0",
        "GUID:3dc9fea223353c44fa545b55b3982d07",
        "GUID:dafea55bbe41b6047aae7c4c31fe4cd4",
        "GUID:290c38e588b73f541b9abf10aab592db",
        "GUID:e691581b8a852ed45a950a2672f4aead",
        "GUID:3f539d11b34f8b8418dbe0355de52915"
    ],
    "includePlatforms": [
        "Editor"
    ],
    "excludePlatforms": [],
    "allowUnsafeCode": false,
    "overrideReferences": false,
    "precompiledReferences": [],
    "autoReferenced": true,
    "defineConstraints": [
        "UNITY_EDITOR"
    ],
    "versionDefines": [],
    "noEngineReferences": false
}