%YAML 1.1
%TAG !u! tag:unity3d.com,2011:
--- !u!114 &11400000
MonoBehaviour:
  m_ObjectHideFlags: 0
  m_CorrespondingSourceObject: {fileID: 0}
  m_PrefabInstance: {fileID: 0}
  m_PrefabAsset: {fileID: 0}
  m_GameObject: {fileID: 0}
  m_Enabled: 1
  m_EditorHideFlags: 0
  m_Script: {fileID: 11500000, guid: d396706c20daf2640af06e7613dc9a16, type: 3}
  m_Name: 4B01BDB7-8F84-450C-9E1D-01E0725C1AD1
  m_EditorClassIdentifier: 
  objectName: Stone
  id: 1216965916
  guid: 4B01BDB7-8F84-450C-9E1D-01E0725C1AD1
  WwiseSwitchGroupReference: {fileID: 11400000, guid: 5425bc9a5c6a2a34aa9f8e0d3e43e48e,
    type: 2}
