%YAML 1.1
%TAG !u! tag:unity3d.com,2011:
--- !u!114 &11400000
MonoBehaviour:
  m_ObjectHideFlags: 0
  m_CorrespondingSourceObject: {fileID: 0}
  m_PrefabInstance: {fileID: 0}
  m_PrefabAsset: {fileID: 0}
  m_GameObject: {fileID: 0}
  m_Enabled: 1
  m_EditorHideFlags: 0
  m_Script: {fileID: 11500000, guid: bb9ed7d60e3cb7f46b94edf3ccdc9ed0, type: 3}
  m_Name: SceneLinks
  m_EditorClassIdentifier: 
  m_scenes:
  - ID: {fileID: -6397639417804886289, guid: 94690feb3aad34340a3b5dbd81698b67, type: 2}
    Scene:
      m_sceneAsset: {fileID: 102900000, guid: b62e8e91887174448bc834ab159e4826, type: 3}
      m_scenePath: Assets/_PitRush/Scenes/Scn_Arena.unity
      m_sceneName: Scn_Arena
  - ID: {fileID: 1034153202195176108, guid: 94690feb3aad34340a3b5dbd81698b67, type: 2}
    Scene:
      m_sceneAsset: {fileID: 102900000, guid: c7993856139d4084ea87b2c41f782085, type: 3}
      m_scenePath: Assets/_PitRush/Scenes/Scn_CharacterSelect.unity
      m_sceneName: Scn_CharacterSelect
  - ID: {fileID: -9071377574369186833, guid: 94690feb3aad34340a3b5dbd81698b67, type: 2}
    Scene:
      m_sceneAsset: {fileID: 102900000, guid: 8ca7bf4f3d1715b4d97a3905a6cb77c6, type: 3}
      m_scenePath: Assets/_PitRush/Scenes/Scn_Elevator.unity
      m_sceneName: Scn_Elevator
  - ID: {fileID: 5932408300473109535, guid: 94690feb3aad34340a3b5dbd81698b67, type: 2}
    Scene:
      m_sceneAsset: {fileID: 102900000, guid: 1519e68c836caf64292ee999d164a594, type: 3}
      m_scenePath: Assets/_PitRush/Scenes/Scn_GameOver.unity
      m_sceneName: Scn_GameOver
  - ID: {fileID: -5402196409862637818, guid: 94690feb3aad34340a3b5dbd81698b67, type: 2}
    Scene:
      m_sceneAsset: {fileID: 102900000, guid: 78efe07b3fa585d4689da92623c4540a, type: 3}
      m_scenePath: Assets/_PitRush/Scenes/Scn_LevelSelect.unity
      m_sceneName: Scn_LevelSelect
  - ID: {fileID: -8881472974947998903, guid: 94690feb3aad34340a3b5dbd81698b67, type: 2}
    Scene:
      m_sceneAsset: {fileID: 102900000, guid: 67389de645c6d8f488dd30bbcf767a8d, type: 3}
      m_scenePath: Assets/_PitRush/Scenes/Scn_Pause.unity
      m_sceneName: Scn_Pause
  - ID: {fileID: -9180505884589412423, guid: 94690feb3aad34340a3b5dbd81698b67, type: 2}
    Scene:
      m_sceneAsset: {fileID: 102900000, guid: 6a0179901cfbb3b489225ec89dc0ac1a, type: 3}
      m_scenePath: Assets/_PitRush/Scenes/Scn_Results.unity
      m_sceneName: Scn_Results
  - ID: {fileID: -5737219244095112566, guid: 94690feb3aad34340a3b5dbd81698b67, type: 2}
    Scene:
      m_sceneAsset: {fileID: 102900000, guid: d42dab48fae10e647be91decb2632199, type: 3}
      m_scenePath: Assets/_PitRush/Scenes/Scn_Title.unity
      m_sceneName: Scn_Title
