%YAML 1.1
%TAG !u! tag:unity3d.com,2011:
--- !u!1 &7766202164229495353
GameObject:
  m_ObjectHideFlags: 0
  m_CorrespondingSourceObject: {fileID: 0}
  m_PrefabInstance: {fileID: 0}
  m_PrefabAsset: {fileID: 0}
  serializedVersion: 6
  m_Component:
  - component: {fileID: 8603622431793577664}
  m_Layer: 0
  m_Name: Pref_Barrier_Ripples
  m_TagString: Untagged
  m_Icon: {fileID: 0}
  m_NavMeshLayer: 0
  m_StaticEditorFlags: 0
  m_IsActive: 1
--- !u!4 &8603622431793577664
Transform:
  m_ObjectHideFlags: 0
  m_CorrespondingSourceObject: {fileID: 0}
  m_PrefabInstance: {fileID: 0}
  m_PrefabAsset: {fileID: 0}
  m_GameObject: {fileID: 7766202164229495353}
  m_LocalRotation: {x: 0, y: 0, z: 0, w: 1}
  m_LocalPosition: {x: 0, y: 0, z: 0}
  m_LocalScale: {x: 1, y: 1, z: 1}
  m_Children:
  - {fileID: 5920460762176397788}
  m_Father: {fileID: 0}
  m_RootOrder: 0
  m_LocalEulerAnglesHint: {x: 0, y: 0, z: 0}
--- !u!1001 &5060818749012819824
PrefabInstance:
  m_ObjectHideFlags: 0
  serializedVersion: 2
  m_Modification:
    m_TransformParent: {fileID: 8603622431793577664}
    m_Modifications:
    - target: {fileID: 1446236466041724560, guid: 7145bda61a268ae4bb4344e0ea0e38a9,
        type: 3}
      propertyPath: m_Name
      value: Part_Barrier_Ripples_(Sheet_A)
      objectReference: {fileID: 0}
    - target: {fileID: 1446236466041724588, guid: 7145bda61a268ae4bb4344e0ea0e38a9,
        type: 3}
      propertyPath: m_LocalPosition.x
      value: 0
      objectReference: {fileID: 0}
    - target: {fileID: 1446236466041724588, guid: 7145bda61a268ae4bb4344e0ea0e38a9,
        type: 3}
      propertyPath: m_LocalPosition.y
      value: 0
      objectReference: {fileID: 0}
    - target: {fileID: 1446236466041724588, guid: 7145bda61a268ae4bb4344e0ea0e38a9,
        type: 3}
      propertyPath: m_LocalPosition.z
      value: 0
      objectReference: {fileID: 0}
    - target: {fileID: 1446236466041724588, guid: 7145bda61a268ae4bb4344e0ea0e38a9,
        type: 3}
      propertyPath: m_LocalRotation.x
      value: -0
      objectReference: {fileID: 0}
    - target: {fileID: 1446236466041724588, guid: 7145bda61a268ae4bb4344e0ea0e38a9,
        type: 3}
      propertyPath: m_LocalRotation.y
      value: -0
      objectReference: {fileID: 0}
    - target: {fileID: 1446236466041724588, guid: 7145bda61a268ae4bb4344e0ea0e38a9,
        type: 3}
      propertyPath: m_LocalRotation.z
      value: -0
      objectReference: {fileID: 0}
    - target: {fileID: 1446236466041724588, guid: 7145bda61a268ae4bb4344e0ea0e38a9,
        type: 3}
      propertyPath: m_LocalRotation.w
      value: 1
      objectReference: {fileID: 0}
    - target: {fileID: 1446236466041724588, guid: 7145bda61a268ae4bb4344e0ea0e38a9,
        type: 3}
      propertyPath: m_RootOrder
      value: 0
      objectReference: {fileID: 0}
    - target: {fileID: 1446236466041724588, guid: 7145bda61a268ae4bb4344e0ea0e38a9,
        type: 3}
      propertyPath: m_LocalEulerAnglesHint.x
      value: -90
      objectReference: {fileID: 0}
    - target: {fileID: 1446236466041724588, guid: 7145bda61a268ae4bb4344e0ea0e38a9,
        type: 3}
      propertyPath: m_LocalEulerAnglesHint.y
      value: 0
      objectReference: {fileID: 0}
    - target: {fileID: 1446236466041724588, guid: 7145bda61a268ae4bb4344e0ea0e38a9,
        type: 3}
      propertyPath: m_LocalEulerAnglesHint.z
      value: 0
      objectReference: {fileID: 0}
    m_RemovedComponents: []
  m_SourcePrefab: {fileID: 100100000, guid: 7145bda61a268ae4bb4344e0ea0e38a9, type: 3}
--- !u!4 &5920460762176397788 stripped
Transform:
  m_CorrespondingSourceObject: {fileID: 1446236466041724588, guid: 7145bda61a268ae4bb4344e0ea0e38a9,
    type: 3}
  m_PrefabInstance: {fileID: 5060818749012819824}
  m_PrefabAsset: {fileID: 0}
