%YAML 1.1
%TAG !u! tag:unity3d.com,2011:
--- !u!114 &-4086083613113507080
MonoBehaviour:
  m_ObjectHideFlags: 11
  m_CorrespondingSourceObject: {fileID: 0}
  m_PrefabInstance: {fileID: 0}
  m_PrefabAsset: {fileID: 0}
  m_GameObject: {fileID: 0}
  m_Enabled: 1
  m_EditorHideFlags: 0
  m_Script: {fileID: 11500000, guid: da692e001514ec24dbc4cca1949ff7e8, type: 3}
  m_Name: 
  m_EditorClassIdentifier: 
  version: 2
--- !u!21 &2100000
Material:
  serializedVersion: 6
  m_ObjectHideFlags: 0
  m_CorrespondingSourceObject: {fileID: 0}
  m_PrefabInstance: {fileID: 0}
  m_PrefabAsset: {fileID: 0}
  m_Name: Mat_Sign_Early_Stage
  m_Shader: {fileID: -6465566751694194690, guid: d6cb4ee791cb145408b1c36b28ebb96b,
    type: 3}
  m_ShaderKeywords: _BLENDMODE_ALPHA _ENABLE_FOG_ON_TRANSPARENT _SURFACE_TYPE_TRANSPARENT
  m_LightmapFlags: 4
  m_EnableInstancingVariants: 0
  m_DoubleSidedGI: 0
  m_CustomRenderQueue: -1
  stringTagMap:
    MotionVector: User
  disabledShaderPasses:
  - DistortionVectors
  - MOTIONVECTORS
  - TransparentDepthPrepass
  - TransparentDepthPostpass
  - TransparentBackface
  m_SavedProperties:
    serializedVersion: 3
    m_TexEnvs:
    - Sh_Main_Texture_F_S_N:
        m_Texture: {fileID: 0}
        m_Scale: {x: 1, y: 1}
        m_Offset: {x: 0, y: 0}
    - Sh_Noise_Mask_F_S_N:
        m_Texture: {fileID: 2800000, guid: 3f1d4fadb37c37e4488860109d7dce4b, type: 3}
        m_Scale: {x: 1, y: 1}
        m_Offset: {x: 0, y: 0}
    - Sh_Noise_Texture_F_S_N:
        m_Texture: {fileID: 0}
        m_Scale: {x: 1, y: 1}
        m_Offset: {x: 0, y: 0}
    - Sh_Scalines_Texture_F_S_N:
        m_Texture: {fileID: 2800000, guid: 9a94aabc151d3aa45ba7a31fb1c35982, type: 3}
        m_Scale: {x: 1, y: 1}
        m_Offset: {x: 0, y: 0}
    - Texture2D_17DD81CE:
        m_Texture: {fileID: 2800000, guid: 9a94aabc151d3aa45ba7a31fb1c35982, type: 3}
        m_Scale: {x: 1, y: 1}
        m_Offset: {x: 0, y: 0}
    - Texture2D_24A8AF5D:
        m_Texture: {fileID: 2800000, guid: 17ebd4b53ade63d4b9795a43eac75e9d, type: 3}
        m_Scale: {x: 1, y: 1}
        m_Offset: {x: 0, y: 0}
    - Texture2D_2B13F49:
        m_Texture: {fileID: 2800000, guid: 9a94aabc151d3aa45ba7a31fb1c35982, type: 3}
        m_Scale: {x: 1, y: 1}
        m_Offset: {x: 0, y: 0}
    - Texture2D_2E964D45:
        m_Texture: {fileID: 2800000, guid: 9a94aabc151d3aa45ba7a31fb1c35982, type: 3}
        m_Scale: {x: 1, y: 1}
        m_Offset: {x: 0, y: 0}
    - Texture2D_36992D5C:
        m_Texture: {fileID: 2800000, guid: 9a94aabc151d3aa45ba7a31fb1c35982, type: 3}
        m_Scale: {x: 1, y: 1}
        m_Offset: {x: 0, y: 0}
    - Texture2D_3CF15142:
        m_Texture: {fileID: 2800000, guid: 17ebd4b53ade63d4b9795a43eac75e9d, type: 3}
        m_Scale: {x: 1, y: 1}
        m_Offset: {x: 0, y: 0}
    - Texture2D_499DF1F0:
        m_Texture: {fileID: 2800000, guid: 17ebd4b53ade63d4b9795a43eac75e9d, type: 3}
        m_Scale: {x: 1, y: 1}
        m_Offset: {x: 0, y: 0}
    - Texture2D_768AAB88:
        m_Texture: {fileID: 2800000, guid: 17ebd4b53ade63d4b9795a43eac75e9d, type: 3}
        m_Scale: {x: 1, y: 1}
        m_Offset: {x: 0, y: 0}
    - Texture2D_8DA54A89:
        m_Texture: {fileID: 2800000, guid: 34718f65c6601b5428c111774266f486, type: 3}
        m_Scale: {x: 1, y: 1}
        m_Offset: {x: 0, y: 0}
    - Texture2D_93E1D7D0:
        m_Texture: {fileID: 2800000, guid: 34718f65c6601b5428c111774266f486, type: 3}
        m_Scale: {x: 1, y: 1}
        m_Offset: {x: 0, y: 0}
    - Texture2D_A021DCA1:
        m_Texture: {fileID: 2800000, guid: 17ebd4b53ade63d4b9795a43eac75e9d, type: 3}
        m_Scale: {x: 1, y: 1}
        m_Offset: {x: 0, y: 0}
    - Texture2D_B68515BA:
        m_Texture: {fileID: 2800000, guid: 8fee9422be2404546bc39c1b1815cdef, type: 3}
        m_Scale: {x: 1, y: 1}
        m_Offset: {x: 0, y: 0}
    - Texture2D_D126D8E8:
        m_Texture: {fileID: 2800000, guid: a5d3cea353e140742b083fe0e87bf39e, type: 3}
        m_Scale: {x: 1, y: 1}
        m_Offset: {x: 0, y: 0}
    - Texture2D_D68DF20:
        m_Texture: {fileID: 2800000, guid: 3f1d4fadb37c37e4488860109d7dce4b, type: 3}
        m_Scale: {x: 1, y: 1}
        m_Offset: {x: 0, y: 0}
    - Texture2D_DDF094B3:
        m_Texture: {fileID: 2800000, guid: 9a94aabc151d3aa45ba7a31fb1c35982, type: 3}
        m_Scale: {x: 1, y: 1}
        m_Offset: {x: 0, y: 0}
    - Texture2D_E1EE1B63:
        m_Texture: {fileID: 2800000, guid: ee06a1c348d3cd040a98e945c33df499, type: 3}
        m_Scale: {x: 1, y: 1}
        m_Offset: {x: 0, y: 0}
    - Texture2D_E8578612:
        m_Texture: {fileID: 2800000, guid: 3f1d4fadb37c37e4488860109d7dce4b, type: 3}
        m_Scale: {x: 1, y: 1}
        m_Offset: {x: 0, y: 0}
    - _AnisotropyMap:
        m_Texture: {fileID: 0}
        m_Scale: {x: 1, y: 1}
        m_Offset: {x: 0, y: 0}
    - _BaseColorMap:
        m_Texture: {fileID: 0}
        m_Scale: {x: 1, y: 1}
        m_Offset: {x: 0, y: 0}
    - _BentNormalMap:
        m_Texture: {fileID: 0}
        m_Scale: {x: 1, y: 1}
        m_Offset: {x: 0, y: 0}
    - _BentNormalMapOS:
        m_Texture: {fileID: 0}
        m_Scale: {x: 1, y: 1}
        m_Offset: {x: 0, y: 0}
    - _CoatMaskMap:
        m_Texture: {fileID: 0}
        m_Scale: {x: 1, y: 1}
        m_Offset: {x: 0, y: 0}
    - _DetailMap:
        m_Texture: {fileID: 0}
        m_Scale: {x: 1, y: 1}
        m_Offset: {x: 0, y: 0}
    - _DistortionVectorMap:
        m_Texture: {fileID: 0}
        m_Scale: {x: 1, y: 1}
        m_Offset: {x: 0, y: 0}
    - _EmissiveColorMap:
        m_Texture: {fileID: 0}
        m_Scale: {x: 1, y: 1}
        m_Offset: {x: 0, y: 0}
    - _HeightMap:
        m_Texture: {fileID: 0}
        m_Scale: {x: 1, y: 1}
        m_Offset: {x: 0, y: 0}
    - _IridescenceMaskMap:
        m_Texture: {fileID: 0}
        m_Scale: {x: 1, y: 1}
        m_Offset: {x: 0, y: 0}
    - _IridescenceThicknessMap:
        m_Texture: {fileID: 0}
        m_Scale: {x: 1, y: 1}
        m_Offset: {x: 0, y: 0}
    - _MainTex:
        m_Texture: {fileID: 0}
        m_Scale: {x: 1, y: 1}
        m_Offset: {x: 0, y: 0}
    - _MaskMap:
        m_Texture: {fileID: 0}
        m_Scale: {x: 1, y: 1}
        m_Offset: {x: 0, y: 0}
    - _NormalMap:
        m_Texture: {fileID: 0}
        m_Scale: {x: 1, y: 1}
        m_Offset: {x: 0, y: 0}
    - _NormalMapOS:
        m_Texture: {fileID: 0}
        m_Scale: {x: 1, y: 1}
        m_Offset: {x: 0, y: 0}
    - _SampleTexture2D_6ED00A3_Texture_1:
        m_Texture: {fileID: 0}
        m_Scale: {x: 1, y: 1}
        m_Offset: {x: 0, y: 0}
    - _SpecularColorMap:
        m_Texture: {fileID: 0}
        m_Scale: {x: 1, y: 1}
        m_Offset: {x: 0, y: 0}
    - _SubsurfaceMaskMap:
        m_Texture: {fileID: 0}
        m_Scale: {x: 1, y: 1}
        m_Offset: {x: 0, y: 0}
    - _TangentMap:
        m_Texture: {fileID: 0}
        m_Scale: {x: 1, y: 1}
        m_Offset: {x: 0, y: 0}
    - _TangentMapOS:
        m_Texture: {fileID: 0}
        m_Scale: {x: 1, y: 1}
        m_Offset: {x: 0, y: 0}
    - _Texture2DAsset_1A052A70_Out_0:
        m_Texture: {fileID: 2800000, guid: 17ebd4b53ade63d4b9795a43eac75e9d, type: 3}
        m_Scale: {x: 1, y: 1}
        m_Offset: {x: 0, y: 0}
    - _Texture2DAsset_411475EA_Out_0:
        m_Texture: {fileID: 0}
        m_Scale: {x: 1, y: 1}
        m_Offset: {x: 0, y: 0}
    - _Texture2DAsset_4EBDDB0_Out_0:
        m_Texture: {fileID: 2800000, guid: 17ebd4b53ade63d4b9795a43eac75e9d, type: 3}
        m_Scale: {x: 1, y: 1}
        m_Offset: {x: 0, y: 0}
    - _Texture2DAsset_5184D23_Out_0:
        m_Texture: {fileID: 2800000, guid: 9a94aabc151d3aa45ba7a31fb1c35982, type: 3}
        m_Scale: {x: 1, y: 1}
        m_Offset: {x: 0, y: 0}
    - _Texture2DAsset_54C93623_Out_0:
        m_Texture: {fileID: 0}
        m_Scale: {x: 1, y: 1}
        m_Offset: {x: 0, y: 0}
    - _Texture2DAsset_6B954919_Out_0:
        m_Texture: {fileID: 2800000, guid: 9a94aabc151d3aa45ba7a31fb1c35982, type: 3}
        m_Scale: {x: 1, y: 1}
        m_Offset: {x: 0, y: 0}
    - _Texture2DAsset_7012A546_Out_0:
        m_Texture: {fileID: 0}
        m_Scale: {x: 1, y: 1}
        m_Offset: {x: 0, y: 0}
    - _Texture2DAsset_90490FF3_Out_0:
        m_Texture: {fileID: 0}
        m_Scale: {x: 1, y: 1}
        m_Offset: {x: 0, y: 0}
    - _Texture2DAsset_9671F426_Out_0:
        m_Texture: {fileID: 0}
        m_Scale: {x: 1, y: 1}
        m_Offset: {x: 0, y: 0}
    - _Texture2DAsset_A9C5202F_Out_0:
        m_Texture: {fileID: 2800000, guid: d4afc4292dcc9a145b620fedef2b54d4, type: 3}
        m_Scale: {x: 1, y: 1}
        m_Offset: {x: 0, y: 0}
    - _Texture2DAsset_D3BAD8D_Out_0:
        m_Texture: {fileID: 0}
        m_Scale: {x: 1, y: 1}
        m_Offset: {x: 0, y: 0}
    - _Texture2DAsset_D3C37C9B_Out_0:
        m_Texture: {fileID: 0}
        m_Scale: {x: 1, y: 1}
        m_Offset: {x: 0, y: 0}
    - _Texture2DAsset_E178F26F_Out_0:
        m_Texture: {fileID: 2800000, guid: 9a94aabc151d3aa45ba7a31fb1c35982, type: 3}
        m_Scale: {x: 1, y: 1}
        m_Offset: {x: 0, y: 0}
    - _Texture2DAsset_EC0BD896_Out_0:
        m_Texture: {fileID: 2800000, guid: 3f1d4fadb37c37e4488860109d7dce4b, type: 3}
        m_Scale: {x: 1, y: 1}
        m_Offset: {x: 0, y: 0}
    - _Texture2DAsset_F67850A4_Out_0:
        m_Texture: {fileID: 0}
        m_Scale: {x: 1, y: 1}
        m_Offset: {x: 0, y: 0}
    - _Texture2DAsset_FF2A3F27_Out_0:
        m_Texture: {fileID: 2800000, guid: 9a94aabc151d3aa45ba7a31fb1c35982, type: 3}
        m_Scale: {x: 1, y: 1}
        m_Offset: {x: 0, y: 0}
    - _ThicknessMap:
        m_Texture: {fileID: 0}
        m_Scale: {x: 1, y: 1}
        m_Offset: {x: 0, y: 0}
    - _TransmittanceColorMap:
        m_Texture: {fileID: 0}
        m_Scale: {x: 1, y: 1}
        m_Offset: {x: 0, y: 0}
    m_Floats:
    - Boolean_15928F87: 1
    - Boolean_2ACCA89A: 0
    - Boolean_30364D54: 0
    - Boolean_34C18605: 0
    - Boolean_625EEBE3: 1
    - Boolean_68B6D3AA: 1
    - Boolean_88141BB8: 0
    - Boolean_98D5E056: 0
    - Boolean_D48813A6: 0
    - Boolean_D819D9C2: 0
    - Boolean_D96021A4: 0
    - Boolean_F28548CD: 1
    - Sh_Activate_Flickering_F_S_N: 1
    - Sh_Activate_Scalines_Opacity_F_S_N: 1
    - Sh_Animation_Speed_F_S_N: 0
    - Sh_End_Frame_F_S_N: 6
    - Sh_Flickering_Frequency_F_S_N: 0.5
    - Sh_Mask_Tiling_F_S_N: 0.89
    - Sh_Noise_Power_F_S_N: 0.774
    - Sh_Noise_Speed_F_S_N: 0.4
    - Sh_Rotate_Noise_F_S_N: 0
    - Sh_Scalines_Blend_F_S_N: 0
    - Sh_Scalines_Opacity_F_S_N_1: 0.716
    - Sh_Start_Frame_F_S_N: 1
    - Sh_Texture_Height_F_S_N: 1
    - Sh_Texture_Width_F_S_N: 1
    - Vector1_10FBF3B1: 0.473
    - Vector1_147BFE62: 1
    - Vector1_20B85505: 0.119
    - Vector1_26297CAD: 0.04
    - Vector1_28D11071: 0.5
    - Vector1_2975A86: 7
    - Vector1_2B598ECA: 2
    - Vector1_2D6305C7: 14.6
    - Vector1_2F0BAF59: 0.671
    - Vector1_32B70DA: 6
    - Vector1_33593A87: 6
    - Vector1_36035759: 0
    - Vector1_3D5E53F1: 1
    - Vector1_3EB79B: 46.9
    - Vector1_42C5C1D: 1.26
    - Vector1_455CE612: 0.265
    - Vector1_48DFBA0B: 1
    - Vector1_4A2A8B8A: 1
    - Vector1_4C87DCF9: 0
    - Vector1_4DE60926: 0
    - Vector1_4F416EF0: 0.04
    - Vector1_50A5ADE0: 6
    - Vector1_5FD35BFB: 0
    - Vector1_61EF0E4C: 1
    - Vector1_62E8ACC7: 0
    - Vector1_68CC5FE8: 0
    - Vector1_6E265C0D: 1
    - Vector1_73328B69: 11.4
    - Vector1_79A47B04: -0.1
    - Vector1_79E6B77C: 0
    - Vector1_7B848B3: 0
    - Vector1_807F5E03: 0
    - Vector1_80B0A2A8: 12.8
    - Vector1_83F7A199: 2
    - Vector1_8FF02E4E: 0
    - Vector1_94992644: 32.5
    - Vector1_95439645: 2
    - Vector1_96114278: 0
    - Vector1_966B6AF6: 3
    - Vector1_9D4B08F1: 0
    - Vector1_A01BF9B5: 3
    - Vector1_A9D6B661: 2
    - Vector1_AAB6408E: 1
    - Vector1_B076F789: 3
    - Vector1_B2C36D8A: 0
    - Vector1_B76F4319: 1
    - Vector1_C0191CDE: 0
    - Vector1_CA8CA0BC: 0
    - Vector1_CFBA0E3B: 0.1
    - Vector1_D0FEC659: 2
    - Vector1_E0A01CE8: 3.78
    - Vector1_E1EB8C7F: 0
    - Vector1_E38C1E9B: 0
    - Vector1_E3F88324: 0
    - Vector1_E4BEDC49: 0.72
    - Vector1_E932C5B1: 1
    - Vector1_EB4FC0FB: 0
    - Vector1_F78F65DB: 0
    - Vector1_FB8BDAC0: 0.1
    - Vector1_FE784168: 0.39
    - _AORemapMax: 1
    - _AORemapMin: 0
    - _ATDistance: 1
    - _AddPrecomputedVelocity: 0
    - _AlbedoAffectEmissive: 0
    - _AlphaCutoff: 0.5
    - _AlphaCutoffEnable: 0
    - _AlphaCutoffPostpass: 0.5
    - _AlphaCutoffPrepass: 0.5
    - _AlphaCutoffShadow: 0.5
    - _AlphaDstBlend: 10
    - _AlphaSrcBlend: 1
    - _Anisotropy: 0
    - _BlendMode: 0
    - _CoatMask: 0
    - _CullMode: 2
    - _CullModeForward: 2
    - _Cutoff: 0.5
    - _DepthOffsetEnable: 0
    - _DetailAlbedoScale: 1
    - _DetailNormalScale: 1
    - _DetailSmoothnessScale: 1
    - _DiffusionProfile: 0
    - _DiffusionProfileHash: 0
    - _DisplacementLockObjectScale: 1
    - _DisplacementLockTilingScale: 1
    - _DisplacementMode: 0
    - _DistortionBlendMode: 0
    - _DistortionBlurBlendMode: 0
    - _DistortionBlurDstBlend: 1
    - _DistortionBlurRemapMax: 1
    - _DistortionBlurRemapMin: 0
    - _DistortionBlurScale: 1
    - _DistortionBlurSrcBlend: 1
    - _DistortionDepthTest: 1
    - _DistortionDstBlend: 1
    - _DistortionEnable: 0
    - _DistortionScale: 1
    - _DistortionSrcBlend: 1
    - _DistortionVectorBias: -1
    - _DistortionVectorScale: 2
    - _DoubleSidedEnable: 0
    - _DoubleSidedNormalMode: 1
    - _DstBlend: 10
    - _EmissiveColorMode: 1
    - _EmissiveExposureWeight: 1
    - _EmissiveIntensity: 1
    - _EmissiveIntensityUnit: 0
    - _EnableBlendModePreserveSpecularLighting: 1
    - _EnableFogOnTransparent: 1
    - _EnableGeometricSpecularAA: 0
    - _EnergyConservingSpecularColor: 1
    - _HeightAmplitude: 0.02
    - _HeightCenter: 0.5
    - _HeightMapParametrization: 0
    - _HeightMax: 1
    - _HeightMin: -1
    - _HeightOffset: 0
    - _HeightPoMAmplitude: 2
    - _HeightTessAmplitude: 2
    - _HeightTessCenter: 0.5
    - _InvTilingScale: 1
    - _Ior: 1.5
    - _IridescenceMask: 1
    - _IridescenceThickness: 1
    - _LinkDetailsWithBase: 1
    - _MaterialID: 1
    - _Metallic: 0
    - _NormalMapSpace: 0
    - _NormalScale: 1
    - _PPDLodThreshold: 5
    - _PPDMaxSamples: 15
    - _PPDMinSamples: 5
    - _PPDPrimitiveLength: 1
    - _PPDPrimitiveWidth: 1
    - _ReceivesSSR: 0
    - _RefractionModel: 0
    - _RenderQueueType: 5
    - _RequireSplitLighting: 0
    - _SSRefractionProjectionModel: 0
    - _Smoothness: 0.5
    - _SmoothnessRemapMax: 1
    - _SmoothnessRemapMin: 0
    - _SpecularAAScreenSpaceVariance: 0.1
    - _SpecularAAThreshold: 0.2
    - _SpecularOcclusionMode: 1
    - _SrcBlend: 1
    - _StencilRef: 0
    - _StencilRefDepth: 0
    - _StencilRefDistortionVec: 4
    - _StencilRefGBuffer: 2
    - _StencilRefMV: 32
    - _StencilWriteMask: 6
    - _StencilWriteMaskDepth: 8
    - _StencilWriteMaskDistortionVec: 4
    - _StencilWriteMaskGBuffer: 14
    - _StencilWriteMaskMV: 40
    - _SubsurfaceMask: 1
    - _SupportDecals: 1
    - _SurfaceType: 1
    - _TexWorldScale: 1
    - _TexWorldScaleEmissive: 1
    - _Thickness: 1
    - _TransmissionEnable: 1
    - _TransparentBackfaceEnable: 0
    - _TransparentCullMode: 2
    - _TransparentDepthPostpassEnable: 0
    - _TransparentDepthPrepassEnable: 0
    - _TransparentSortPriority: 0
    - _TransparentWritingMotionVec: 0
    - _TransparentZWrite: 0
    - _UVBase: 0
    - _UVDetail: 0
    - _UVEmissive: 0
    - _UseEmissiveIntensity: 0
    - _UseShadowThreshold: 0
    - _ZTestDepthEqualForOpaque: 4
    - _ZTestGBuffer: 4
    - _ZTestModeDistortion: 4
    - _ZTestTransparent: 4
    - _ZWrite: 0
    m_Colors:
    - Color_1D3183D7: {r: 0, g: 0, b: 0, a: 0}
    - Color_2698C88D: {r: 0.7490196, g: 0.7058824, b: 0, a: 1}
    - Color_599E612D: {r: 25.992073, g: 0.3057891, b: 0, a: 0}
    - Color_5CEFB538: {r: 0, g: 0, b: 0, a: 0}
    - Color_60BD448B: {r: 4.759381, g: 0.1993458, b: 0, a: 1}
    - Color_9EE0B24: {r: 0, g: 0, b: 0, a: 0}
    - Color_D0B308B8: {r: 22.627417, g: 0, b: 0, a: 0}
    - Color_EC0E1364: {r: 0.6226415, g: 0.6148908, b: 0, a: 1}
    - Sh_Main_Color_F_S_N: {r: 1, g: 1, b: 1, a: 1}
    - Sh_Main_Texture_Tiling_F_S_N: {r: 1, g: 1, b: 0, a: 0}
    - Sh_Noise_Tiling_F_S_N: {r: 1, g: 0.5, b: 0, a: 0}
    - Sh_Scalines_Tiling_F_S_N: {r: 1, g: 0.5, b: 0, a: 0}
    - Sh_Scrolling_Texture_Speed_F_S_N: {r: 0, g: 0, b: 0, a: 0}
    - Vector2_5462532D: {r: 0.1, g: 0.1, b: 0, a: 0}
    - Vector2_6379F588: {r: 1, g: 1, b: 0, a: 0}
    - Vector2_7A7B1409: {r: 1, g: 1, b: 0, a: 0}
    - Vector2_86A266EC: {r: 1, g: 0.2, b: 0, a: 0}
    - Vector2_9D8E858E: {r: 0, g: 0, b: 0, a: 0}
    - Vector2_A522DA36: {r: 1, g: 1, b: 0, a: 0}
    - Vector2_A640F66F: {r: 1, g: 1, b: 0, a: 0}
    - Vector2_C77F808B: {r: 0, g: 0, b: 0, a: 0}
    - Vector2_C818B1C6: {r: 1, g: 5, b: 0, a: 0}
    - Vector2_C870309D: {r: 0, g: 0, b: 0, a: 0}
    - Vector2_CE92433C: {r: 0, g: 0, b: 0, a: 0}
    - Vector2_DCB61FF5: {r: 1, g: 0.4, b: 0, a: 0}
    - Vector2_DCD62893: {r: 0.1, g: 0.58, b: 0, a: 0}
    - Vector2_E14AD981: {r: 0, g: 0, b: 0, a: 0}
    - Vector2_FAD1BB: {r: 1, g: 1, b: 0, a: 0}
    - _BaseColor: {r: 1, g: 1, b: 1, a: 1}
    - _BaseColorMap_MipInfo: {r: 0, g: 0, b: 0, a: 0}
    - _Color: {r: 1, g: 1, b: 1, a: 1}
    - _DiffusionProfileAsset: {r: 0, g: 0, b: 0, a: 0}
    - _DoubleSidedConstants: {r: 1, g: 1, b: -1, a: 0}
    - _EmissionColor: {r: 1, g: 1, b: 1, a: 1}
    - _EmissiveColor: {r: 0, g: 0, b: 0, a: 1}
    - _EmissiveColorLDR: {r: 0, g: 0, b: 0, a: 1}
    - _InvPrimScale: {r: 1, g: 1, b: 0, a: 0}
    - _IridescenceThicknessRemap: {r: 0, g: 1, b: 0, a: 0}
    - _SpecularColor: {r: 1, g: 1, b: 1, a: 1}
    - _ThicknessRemap: {r: 0, g: 1, b: 0, a: 0}
    - _TransmittanceColor: {r: 1, g: 1, b: 1, a: 1}
    - _UVDetailsMappingMask: {r: 1, g: 0, b: 0, a: 0}
    - _UVMappingMask: {r: 1, g: 0, b: 0, a: 0}
    - _UVMappingMaskEmissive: {r: 1, g: 0, b: 0, a: 0}
