%YAML 1.1
%TAG !u! tag:unity3d.com,2011:
--- !u!114 &4620882908100982751
MonoBehaviour:
  m_ObjectHideFlags: 0
  m_CorrespondingSourceObject: {fileID: 0}
  m_PrefabInstance: {fileID: 0}
  m_PrefabAsset: {fileID: 0}
  m_GameObject: {fileID: 6314133633053940847}
  m_Enabled: 1
  m_EditorHideFlags: 0
  m_Script: {fileID: 11500000, guid: 4dbb47b5d3d57a54490ac983e5036c91, type: 3}
  m_Name: 
  m_EditorClassIdentifier: 
  m_onSpawn:
    m_PersistentCalls:
      m_Calls: []
  m_onDespawn:
    m_PersistentCalls:
      m_Calls:
      - m_Target: {fileID: 6438110153535594765}
        m_MethodName: DoRestore
        m_Mode: 1
        m_Arguments:
          m_ObjectArgument: {fileID: 0}
          m_ObjectArgumentAssemblyTypeName: UnityEngine.Object, UnityEngine
          m_IntArgument: 0
          m_FloatArgument: 0
          m_StringArgument: 
          m_BoolArgument: 0
        m_CallState: 2
--- !u!114 &6438110153535594765
MonoBehaviour:
  m_ObjectHideFlags: 0
  m_CorrespondingSourceObject: {fileID: 0}
  m_PrefabInstance: {fileID: 0}
  m_PrefabAsset: {fileID: 0}
  m_GameObject: {fileID: 6314133633053940847}
  m_Enabled: 1
  m_EditorHideFlags: 0
  m_Script: {fileID: 11500000, guid: d1413d477e1a5a344abc7480788447a9, type: 3}
  m_Name: 
  m_EditorClassIdentifier: 
  DestroyThisOnRestore: 0
  Parts: []
--- !u!1001 &2630561793420395878
PrefabInstance:
  m_ObjectHideFlags: 0
  serializedVersion: 2
  m_Modification:
    m_TransformParent: {fileID: 0}
    m_Modifications:
    - target: {fileID: -4216859302048453862, guid: c9adad34fc7bb4a42858ad69fece0a8b,
        type: 3}
      propertyPath: m_LocalPosition.x
      value: 0
      objectReference: {fileID: 0}
    - target: {fileID: -4216859302048453862, guid: c9adad34fc7bb4a42858ad69fece0a8b,
        type: 3}
      propertyPath: m_LocalPosition.y
      value: 0
      objectReference: {fileID: 0}
    - target: {fileID: -4216859302048453862, guid: c9adad34fc7bb4a42858ad69fece0a8b,
        type: 3}
      propertyPath: m_LocalPosition.z
      value: 0
      objectReference: {fileID: 0}
    - target: {fileID: -4216859302048453862, guid: c9adad34fc7bb4a42858ad69fece0a8b,
        type: 3}
      propertyPath: m_LocalRotation.x
      value: 0
      objectReference: {fileID: 0}
    - target: {fileID: -4216859302048453862, guid: c9adad34fc7bb4a42858ad69fece0a8b,
        type: 3}
      propertyPath: m_LocalRotation.y
      value: 0
      objectReference: {fileID: 0}
    - target: {fileID: -4216859302048453862, guid: c9adad34fc7bb4a42858ad69fece0a8b,
        type: 3}
      propertyPath: m_LocalRotation.z
      value: 0
      objectReference: {fileID: 0}
    - target: {fileID: -4216859302048453862, guid: c9adad34fc7bb4a42858ad69fece0a8b,
        type: 3}
      propertyPath: m_LocalRotation.w
      value: 1
      objectReference: {fileID: 0}
    - target: {fileID: -4216859302048453862, guid: c9adad34fc7bb4a42858ad69fece0a8b,
        type: 3}
      propertyPath: m_RootOrder
      value: 0
      objectReference: {fileID: 0}
    - target: {fileID: -4216859302048453862, guid: c9adad34fc7bb4a42858ad69fece0a8b,
        type: 3}
      propertyPath: m_LocalEulerAnglesHint.x
      value: 0
      objectReference: {fileID: 0}
    - target: {fileID: -4216859302048453862, guid: c9adad34fc7bb4a42858ad69fece0a8b,
        type: 3}
      propertyPath: m_LocalEulerAnglesHint.y
      value: 0
      objectReference: {fileID: 0}
    - target: {fileID: -4216859302048453862, guid: c9adad34fc7bb4a42858ad69fece0a8b,
        type: 3}
      propertyPath: m_LocalEulerAnglesHint.z
      value: 0
      objectReference: {fileID: 0}
    - target: {fileID: -927199367670048503, guid: c9adad34fc7bb4a42858ad69fece0a8b,
        type: 3}
      propertyPath: m_Name
      value: Pref_EnemyZombieMinionExplodingParts
      objectReference: {fileID: 0}
    m_RemovedComponents: []
  m_SourcePrefab: {fileID: 100100000, guid: c9adad34fc7bb4a42858ad69fece0a8b, type: 3}
--- !u!1 &6314133633053940847 stripped
GameObject:
  m_CorrespondingSourceObject: {fileID: -927199367670048503, guid: c9adad34fc7bb4a42858ad69fece0a8b,
    type: 3}
  m_PrefabInstance: {fileID: 2630561793420395878}
  m_PrefabAsset: {fileID: 0}
