%YAML 1.1
%TAG !u! tag:unity3d.com,2011:
--- !u!114 &11400000
MonoBehaviour:
  m_ObjectHideFlags: 0
  m_CorrespondingSourceObject: {fileID: 0}
  m_PrefabInstance: {fileID: 0}
  m_PrefabAsset: {fileID: 0}
  m_GameObject: {fileID: 0}
  m_Enabled: 1
  m_EditorHideFlags: 0
  m_Script: {fileID: 11500000, guid: ab51277440f8c4b44b504f1583e8b2b9, type: 3}
  m_Name: 16F57985-C5CB-422D-8FC0-40AA6BFC1CC8
  m_EditorClassIdentifier: 
  objectName: Combat
  id: 2764240573
  guid: 16F57985-C5CB-422D-8FC0-40AA6BFC1CC8
  WwiseStateGroupReference: {fileID: 11400000, guid: 03689b90fa8ffe348b330c84d832baab,
    type: 2}
