%YAML 1.1
%TAG !u! tag:unity3d.com,2011:
--- !u!114 &11400000
MonoBehaviour:
  m_ObjectHideFlags: 0
  m_CorrespondingSourceObject: {fileID: 0}
  m_PrefabInstance: {fileID: 0}
  m_PrefabAsset: {fileID: 0}
  m_GameObject: {fileID: 0}
  m_Enabled: 1
  m_EditorHideFlags: 0
  m_Script: {fileID: 11500000, guid: ab51277440f8c4b44b504f1583e8b2b9, type: 3}
  m_Name: 6BC93293-43C9-4262-9EF1-560B78352C29
  m_EditorClassIdentifier: 
  objectName: BetweenWaves
  id: 2071144875
  guid: 6BC93293-43C9-4262-9EF1-560B78352C29
  WwiseStateGroupReference: {fileID: 11400000, guid: ab9a2f612edbda34b9d0bc52db39885d,
    type: 2}
