%YAML 1.1
%TAG !u! tag:unity3d.com,2011:
--- !u!114 &11400000
MonoBehaviour:
  m_ObjectHideFlags: 0
  m_CorrespondingSourceObject: {fileID: 0}
  m_PrefabInstance: {fileID: 0}
  m_PrefabAsset: {fileID: 0}
  m_GameObject: {fileID: 0}
  m_Enabled: 1
  m_EditorHideFlags: 0
  m_Script: {fileID: 11500000, guid: d911d1c9ee2c484458fd34cbf469f34f, type: 3}
  m_Name: ArenaPrefabVariant
  m_EditorClassIdentifier: 
  EnumName: ArenaPrefabVariant
  Folder: {fileID: 102900000, guid: a6472bd3ecf70af468253ed0466f4a60, type: 3}
  NameSpaceStart: 3
  EnumEntries:
  - Editor
  - Default
  - Wall
  - Spikes
  - Holo
