%YAML 1.1
%TAG !u! tag:unity3d.com,2011:
--- !u!114 &11400000
MonoBehaviour:
  m_ObjectHideFlags: 0
  m_CorrespondingSourceObject: {fileID: 0}
  m_PrefabInstance: {fileID: 0}
  m_PrefabAsset: {fileID: 0}
  m_GameObject: {fileID: 0}
  m_Enabled: 1
  m_EditorHideFlags: 0
  m_Script: {fileID: 11500000, guid: 3f3525ce99bc2944d9c88eb767f7402d, type: 3}
  m_Name: 1B5A4025-5726-40C0-AF3C-23A0255CE827
  m_EditorClassIdentifier: 
  objectName: Play_ResultScreen_CounterTick_2_Mechanical
  id: 1267645882
  guid: 1B5A4025-5726-40C0-AF3C-23A0255CE827
