%YAML 1.1
%TAG !u! tag:unity3d.com,2011:
--- !u!114 &11400000
MonoBehaviour:
  m_ObjectHideFlags: 0
  m_CorrespondingSourceObject: {fileID: 0}
  m_PrefabInstance: {fileID: 0}
  m_PrefabAsset: {fileID: 0}
  m_GameObject: {fileID: 0}
  m_Enabled: 1
  m_EditorHideFlags: 0
  m_Script: {fileID: 11500000, guid: 3f3525ce99bc2944d9c88eb767f7402d, type: 3}
  m_Name: 3ACFDAE3-ED6B-435F-BD9D-48D60F77B5A3
  m_EditorClassIdentifier: 
  objectName: Play_Shared_Dash
  id: 503747440
  guid: 3ACFDAE3-ED6B-435F-BD9D-48D60F77B5A3
