%YAML 1.1
%TAG !u! tag:unity3d.com,2011:
--- !u!114 &11400000
MonoBehaviour:
  m_ObjectHideFlags: 0
  m_CorrespondingSourceObject: {fileID: 0}
  m_PrefabInstance: {fileID: 0}
  m_PrefabAsset: {fileID: 0}
  m_GameObject: {fileID: 0}
  m_Enabled: 1
  m_EditorHideFlags: 0
  m_Script: {fileID: 11500000, guid: 3f3525ce99bc2944d9c88eb767f7402d, type: 3}
  m_Name: 664ECAE3-6869-4CBC-A2EE-1104D195DE22
  m_EditorClassIdentifier: 
  objectName: Play_Throw_FastWeapon_Whoosh
  id: 2785642064
  guid: 664ECAE3-6869-4CBC-A2EE-1104D195DE22
