%YAML 1.1
%TAG !u! tag:unity3d.com,2011:
--- !u!114 &11400000
MonoBehaviour:
  m_ObjectHideFlags: 0
  m_CorrespondingSourceObject: {fileID: 0}
  m_PrefabInstance: {fileID: 0}
  m_PrefabAsset: {fileID: 0}
  m_GameObject: {fileID: 0}
  m_Enabled: 1
  m_EditorHideFlags: 0
  m_Script: {fileID: 11500000, guid: 3f3525ce99bc2944d9c88eb767f7402d, type: 3}
  m_Name: A19A99E9-0699-48AC-9C0D-015155971FD8
  m_EditorClassIdentifier: 
  objectName: Play_AmbientRegions_Arena_General_Crowd_01
  id: 2749539400
  guid: A19A99E9-0699-48AC-9C0D-015155971FD8
