%YAML 1.1
%TAG !u! tag:unity3d.com,2011:
--- !u!114 &11400000
MonoBehaviour:
  m_ObjectHideFlags: 0
  m_CorrespondingSourceObject: {fileID: 0}
  m_PrefabInstance: {fileID: 0}
  m_PrefabAsset: {fileID: 0}
  m_GameObject: {fileID: 0}
  m_Enabled: 1
  m_EditorHideFlags: 0
  m_Script: {fileID: 11500000, guid: 3f3525ce99bc2944d9c88eb767f7402d, type: 3}
  m_Name: B30EC9CF-F173-41FE-87C9-A87FDD986820
  m_EditorClassIdentifier: 
  objectName: Play_Lion_Gunshot_Impact_HolographicWall
  id: 2889607461
  guid: B30EC9CF-F173-41FE-87C9-A87FDD986820
