%YAML 1.1
%TAG !u! tag:unity3d.com,2011:
--- !u!1001 &6769891797660690305
PrefabInstance:
  m_ObjectHideFlags: 0
  serializedVersion: 2
  m_Modification:
    m_TransformParent: {fileID: 0}
    m_Modifications:
    - target: {fileID: 868614262557202299, guid: 86aacf599059c544fadf8e230547190e,
        type: 3}
      propertyPath: InitialModule.startColor.maxColor.r
      value: 0.35
      objectReference: {fileID: 0}
    - target: {fileID: 868614262557202299, guid: 86aacf599059c544fadf8e230547190e,
        type: 3}
      propertyPath: InitialModule.startColor.maxColor.g
      value: 0.49210522
      objectReference: {fileID: 0}
    - target: {fileID: 868614262557202299, guid: 86aacf599059c544fadf8e230547190e,
        type: 3}
      propertyPath: InitialModule.startColor.maxColor.b
      value: 0.5
      objectReference: {fileID: 0}
    - target: {fileID: 1871829008468249485, guid: 86aacf599059c544fadf8e230547190e,
        type: 3}
      propertyPath: m_LocalPosition.x
      value: 0
      objectReference: {fileID: 0}
    - target: {fileID: 1871829008468249485, guid: 86aacf599059c544fadf8e230547190e,
        type: 3}
      propertyPath: m_LocalPosition.y
      value: 0
      objectReference: {fileID: 0}
    - target: {fileID: 1871829008468249485, guid: 86aacf599059c544fadf8e230547190e,
        type: 3}
      propertyPath: m_LocalPosition.z
      value: 0
      objectReference: {fileID: 0}
    - target: {fileID: 1871829008468249485, guid: 86aacf599059c544fadf8e230547190e,
        type: 3}
      propertyPath: m_LocalRotation.x
      value: 0
      objectReference: {fileID: 0}
    - target: {fileID: 1871829008468249485, guid: 86aacf599059c544fadf8e230547190e,
        type: 3}
      propertyPath: m_LocalRotation.y
      value: 0
      objectReference: {fileID: 0}
    - target: {fileID: 1871829008468249485, guid: 86aacf599059c544fadf8e230547190e,
        type: 3}
      propertyPath: m_LocalRotation.z
      value: 0
      objectReference: {fileID: 0}
    - target: {fileID: 1871829008468249485, guid: 86aacf599059c544fadf8e230547190e,
        type: 3}
      propertyPath: m_LocalRotation.w
      value: 1
      objectReference: {fileID: 0}
    - target: {fileID: 1871829008468249485, guid: 86aacf599059c544fadf8e230547190e,
        type: 3}
      propertyPath: m_RootOrder
      value: 0
      objectReference: {fileID: 0}
    - target: {fileID: 1871829008468249485, guid: 86aacf599059c544fadf8e230547190e,
        type: 3}
      propertyPath: m_LocalEulerAnglesHint.x
      value: 0
      objectReference: {fileID: 0}
    - target: {fileID: 1871829008468249485, guid: 86aacf599059c544fadf8e230547190e,
        type: 3}
      propertyPath: m_LocalEulerAnglesHint.y
      value: 0
      objectReference: {fileID: 0}
    - target: {fileID: 1871829008468249485, guid: 86aacf599059c544fadf8e230547190e,
        type: 3}
      propertyPath: m_LocalEulerAnglesHint.z
      value: 0
      objectReference: {fileID: 0}
    - target: {fileID: 2949593070561013759, guid: 86aacf599059c544fadf8e230547190e,
        type: 3}
      propertyPath: InitialModule.startColor.maxColor.r
      value: 0.35
      objectReference: {fileID: 0}
    - target: {fileID: 2949593070561013759, guid: 86aacf599059c544fadf8e230547190e,
        type: 3}
      propertyPath: InitialModule.startColor.maxColor.g
      value: 0.49210522
      objectReference: {fileID: 0}
    - target: {fileID: 2949593070561013759, guid: 86aacf599059c544fadf8e230547190e,
        type: 3}
      propertyPath: InitialModule.startColor.maxColor.b
      value: 0.5
      objectReference: {fileID: 0}
    - target: {fileID: 2949593070953087556, guid: 86aacf599059c544fadf8e230547190e,
        type: 3}
      propertyPath: InitialModule.startColor.maxColor.r
      value: 0.35
      objectReference: {fileID: 0}
    - target: {fileID: 2949593070953087556, guid: 86aacf599059c544fadf8e230547190e,
        type: 3}
      propertyPath: InitialModule.startColor.maxColor.g
      value: 0.49210522
      objectReference: {fileID: 0}
    - target: {fileID: 2949593070953087556, guid: 86aacf599059c544fadf8e230547190e,
        type: 3}
      propertyPath: InitialModule.startColor.maxColor.b
      value: 0.5
      objectReference: {fileID: 0}
    - target: {fileID: 2986717016668609416, guid: 86aacf599059c544fadf8e230547190e,
        type: 3}
      propertyPath: InitialModule.startColor.maxColor.r
      value: 0.35
      objectReference: {fileID: 0}
    - target: {fileID: 2986717016668609416, guid: 86aacf599059c544fadf8e230547190e,
        type: 3}
      propertyPath: InitialModule.startColor.maxColor.g
      value: 0.49210522
      objectReference: {fileID: 0}
    - target: {fileID: 2986717016668609416, guid: 86aacf599059c544fadf8e230547190e,
        type: 3}
      propertyPath: InitialModule.startColor.maxColor.b
      value: 0.5
      objectReference: {fileID: 0}
    - target: {fileID: 6013135969221901957, guid: 86aacf599059c544fadf8e230547190e,
        type: 3}
      propertyPath: m_LocalPosition.z
      value: 13.25
      objectReference: {fileID: 0}
    - target: {fileID: 6541764657865920247, guid: 86aacf599059c544fadf8e230547190e,
        type: 3}
      propertyPath: m_LocalRotation.y
      value: 1
      objectReference: {fileID: 0}
    - target: {fileID: 6541764657865920247, guid: 86aacf599059c544fadf8e230547190e,
        type: 3}
      propertyPath: m_LocalRotation.w
      value: 0
      objectReference: {fileID: 0}
    - target: {fileID: 6541764657865920247, guid: 86aacf599059c544fadf8e230547190e,
        type: 3}
      propertyPath: m_LocalEulerAnglesHint.y
      value: 180
      objectReference: {fileID: 0}
    - target: {fileID: 7204090979366235776, guid: 86aacf599059c544fadf8e230547190e,
        type: 3}
      propertyPath: InitialModule.startColor.maxColor.r
      value: 0.35
      objectReference: {fileID: 0}
    - target: {fileID: 7204090979366235776, guid: 86aacf599059c544fadf8e230547190e,
        type: 3}
      propertyPath: InitialModule.startColor.maxColor.g
      value: 0.49210522
      objectReference: {fileID: 0}
    - target: {fileID: 7204090979366235776, guid: 86aacf599059c544fadf8e230547190e,
        type: 3}
      propertyPath: InitialModule.startColor.maxColor.b
      value: 0.5
      objectReference: {fileID: 0}
    - target: {fileID: 8330620208723641967, guid: 86aacf599059c544fadf8e230547190e,
        type: 3}
      propertyPath: m_Name
      value: AimingWhite
      objectReference: {fileID: 0}
    m_RemovedComponents: []
  m_SourcePrefab: {fileID: 100100000, guid: 86aacf599059c544fadf8e230547190e, type: 3}
