%YAML 1.1
%TAG !u! tag:unity3d.com,2011:
--- !u!21 &2100000
Material:
  serializedVersion: 6
  m_ObjectHideFlags: 0
  m_CorrespondingSourceObject: {fileID: 0}
  m_PrefabInstance: {fileID: 0}
  m_PrefabAsset: {fileID: 0}
  m_Name: Mat_Aura_Wind
  m_Shader: {fileID: -6465566751694194690, guid: 07d4772db3659cc4bad5a6f002bee88f,
    type: 3}
  m_ShaderKeywords: _BLENDMODE_ALPHA _SURFACE_TYPE_TRANSPARENT
  m_LightmapFlags: 4
  m_EnableInstancingVariants: 0
  m_DoubleSidedGI: 0
  m_CustomRenderQueue: 2750
  stringTagMap:
    MotionVector: User
    RenderType: Transparent
  disabledShaderPasses:
  - TransparentBackface
  - MOTIONVECTORS
  m_SavedProperties:
    serializedVersion: 3
    m_TexEnvs:
    - _BumpMap:
        m_Texture: {fileID: 0}
        m_Scale: {x: 1, y: 1}
        m_Offset: {x: 0, y: 0}
    - _DetailAlbedoMap:
        m_Texture: {fileID: 0}
        m_Scale: {x: 1, y: 1}
        m_Offset: {x: 0, y: 0}
    - _DetailMask:
        m_Texture: {fileID: 0}
        m_Scale: {x: 1, y: 1}
        m_Offset: {x: 0, y: 0}
    - _DetailNormalMap:
        m_Texture: {fileID: 0}
        m_Scale: {x: 1, y: 1}
        m_Offset: {x: 0, y: 0}
    - _EmissionMap:
        m_Texture: {fileID: 0}
        m_Scale: {x: 1, y: 1}
        m_Offset: {x: 0, y: 0}
    - _Flow:
        m_Texture: {fileID: 0}
        m_Scale: {x: 1, y: 1}
        m_Offset: {x: 0, y: 0}
    - _MainTex:
        m_Texture: {fileID: 2800000, guid: ddf0f31ee50151b4cacf41ed80791278, type: 3}
        m_Scale: {x: 2, y: 0.5}
        m_Offset: {x: 0, y: 0}
    - _Mask:
        m_Texture: {fileID: 0}
        m_Scale: {x: 1, y: 1}
        m_Offset: {x: 0, y: 0}
    - _MetallicGlossMap:
        m_Texture: {fileID: 0}
        m_Scale: {x: 1, y: 1}
        m_Offset: {x: 0, y: 0}
    - _Noise:
        m_Texture: {fileID: 2800000, guid: 5b66e25d75ad8bc47a270f48df3ae17d, type: 3}
        m_Scale: {x: 1, y: 1}
        m_Offset: {x: 0, y: 0}
    - _OcclusionMap:
        m_Texture: {fileID: 0}
        m_Scale: {x: 1, y: 1}
        m_Offset: {x: 0, y: 0}
    - _ParallaxMap:
        m_Texture: {fileID: 0}
        m_Scale: {x: 1, y: 1}
        m_Offset: {x: 0, y: 0}
    - _texcoord:
        m_Texture: {fileID: 0}
        m_Scale: {x: 1, y: 1}
        m_Offset: {x: 0, y: 0}
    m_Floats:
    - _AlphaCutoffEnable: 0
    - _AlphaDstBlend: 10
    - _AlphaSrcBlend: 1
    - _BlendMode: 0
    - _BumpScale: 1
    - _CullMode: 2
    - _CullModeForward: 2
    - _Cutoff: 0.5
    - _Depthpower: 1
    - _DetailNormalMapScale: 1
    - _Distortionpower: 0
    - _DoubleSidedEnable: 0
    - _DoubleSidedNormalMode: 2
    - _DstBlend: 10
    - _Emission: 5
    - _EnableFogOnTransparent: 0
    - _GlossMapScale: 1
    - _Glossiness: 0.5
    - _GlossyReflections: 1
    - _InvFade: 1
    - _MainTexUspeed: 0
    - _MainTexVspeed: 1
    - _Metallic: 0
    - _Mode: 0
    - _NoiseUspeed: 0
    - _NoiseVspeed: 0
    - _OcclusionStrength: 1
    - _Opacity: 1
    - _Parallax: 0.02
    - _ReceivesSSR: 0
    - _RenderQueueType: 4
    - _RequireSplitLighting: 0
    - _SmoothnessTextureChannel: 0
    - _SpecularHighlights: 1
    - _SrcBlend: 1
    - _StencilRef: 0
    - _StencilRefDepth: 0
    - _StencilRefDistortionVec: 4
    - _StencilRefGBuffer: 2
    - _StencilRefMV: 32
    - _StencilWriteMask: 6
    - _StencilWriteMaskDepth: 8
    - _StencilWriteMaskDistortionVec: 4
    - _StencilWriteMaskGBuffer: 14
    - _StencilWriteMaskMV: 40
    - _SurfaceType: 1
    - _TransparentBackfaceEnable: 0
    - _TransparentCullMode: 2
    - _TransparentSortPriority: 0
    - _TransparentZWrite: 0
    - _UVSec: 0
    - _UseShadowThreshold: 0
    - _Usecenterglow: 0
    - _Usedepth: 1
    - _ZTestDepthEqualForOpaque: 4
    - _ZTestGBuffer: 4
    - _ZTestTransparent: 4
    - _ZWrite: 0
    m_Colors:
    - _Color: {r: 4, g: 4, b: 4, a: 1}
    - _DistortionSpeedXYPowerZ: {r: 0, g: 0, b: 0, a: 0}
    - _DoubleSidedConstants: {r: 1, g: 1, b: -1, a: 0}
    - _EmissionColor: {r: 1, g: 1, b: 1, a: 1}
    - _FlowTiling: {r: 1, g: 1, b: 1, a: 0}
    - _MainTexTiling: {r: 3, g: 1, b: 0, a: 0}
    - _MaskTiling: {r: 1, g: 1, b: 0, a: 0}
    - _NoiseTiling: {r: 1, g: 1, b: 0, a: 0}
    - _SpeedMainTexUVNoiseUV: {r: 0, g: 1, b: 0, a: 0}
    - _SpeedMainTexUVNoiseZW: {r: 0, g: 4, b: 0, a: 0}
    - _TintColor: {r: 1, g: 1, b: 1, a: 1}
--- !u!114 &4784458570128294127
MonoBehaviour:
  m_ObjectHideFlags: 11
  m_CorrespondingSourceObject: {fileID: 0}
  m_PrefabInstance: {fileID: 0}
  m_PrefabAsset: {fileID: 0}
  m_GameObject: {fileID: 0}
  m_Enabled: 1
  m_EditorHideFlags: 0
  m_Script: {fileID: 11500000, guid: da692e001514ec24dbc4cca1949ff7e8, type: 3}
  m_Name: 
  m_EditorClassIdentifier: 
  version: 2
